
sao6.png
size: 132,45
format: RGBA8888
filter: Linear,Linear
repeat: none
lightyellowstar
  rotate: false
  xy: 46, 2
  size: 41, 41
  orig: 41, 41
  offset: 0, 0
  index: -1
whitestar
  rotate: false
  xy: 2, 2
  size: 42, 41
  orig: 42, 41
  offset: 0, 0
  index: -1
yellowstar
  rotate: false
  xy: 89, 2
  size: 41, 41
  orig: 41, 41
  offset: 0, 0
  index: -1
