{
	"data": {
		"level": [
			{
				"width": 7,
				"spawn_table": [ ],
				"forced_spawn_queue": [ ],
				"bossScripts": [ ],
				"numericId": 4,
				"popsiclesToCollect": 0,
				"objects": {
					"6_6": { "data": { }, "type": "empty" },
					"2_7": { "data": { }, "type": "match_object", "color": "red" },
					"4_6": { "type": "match_object", "data": { }, "color": "blue" },
					"2_6": { "data": { }, "type": "match_object", "color": "blue" },
					"3_6": { "type": "match_object", "data": { }, "color": "red" },
					"2_5": { "data": "1", "type": "sugar" },
					"1_5": { "data": "1", "type": "sugar" },
					"5_5": { "data": "1", "type": "sugar" },
					"0_6": { "data": { }, "type": "empty" },
					"3_7": { "type": "match_object", "data": { }, "color": "blue" },
					"4_7": { "type": "match_object", "data": { }, "color": "red" },
					"4_5": { "data": "1", "type": "sugar" },
					"1_6": { "data": "1", "type": "sugar" },
					"3_5": { "data": "1", "type": "sugar" },
					"1_7": { "data": "1", "type": "sugar" },
					"5_7": { "type": "sugar", "data": "1" },
					"5_6": { "type": "sugar", "data": "1" },
					"0_7": { "data": { }, "type": "empty" },
					"6_7": { "data": { }, "type": "empty" }
				},
				"scores": [ 1200, 3500, 5500 ],
				"title": "Level 4",
				"height": 8,
				"background": "",
				"colors": { "blue": 2.5, "purple": 2.5, "yellow": 1, "orange": 1.5, "red": 2.5, "green": 2 },
				"layers": {
					"0": { },
					"1": { },
					"2": { },
					"3": { },
					"4": { },
					"5": { },
					"6": { },
					"7": { },
					"8": { },
					"9": { },
					"10": { },
					"11": { },
					"12": { },
					"13": { },
					"15": { },
					"16": { },
					"17": { },
					"18": {
						"1_7": { "data": { "name": "empty", "forced_spawn_queue": [ ], "spawn_table": [ ], "colors": { } }, "type": "spawner" },
						"2_7": { "data": { "name": "empty", "forced_spawn_queue": [ ], "spawn_table": [ ], "colors": { } }, "type": "spawner" },
						"3_7": { "data": { "name": "empty", "forced_spawn_queue": [ ], "spawn_table": [ ], "colors": { } }, "type": "spawner" },
						"4_7": { "data": { "name": "empty", "forced_spawn_queue": [ ], "spawn_table": [ ], "colors": { } }, "type": "spawner" },
						"5_7": { "data": { "name": "empty", "forced_spawn_queue": [ ], "spawn_table": [ ], "colors": { } }, "type": "spawner" }
					}
				},
				"limit": [ { "value": 28, "type": "move" } ],
				"spawners": { },
				"pregame_boosters": [ ],
				"goals": [
					{ "value": 1, "type": "break", "object_type": "match_object", "color": "red" },
					{ "value": 1, "type": "break", "object_type": "match_object", "color": "blue" },
					{ "value": 1, "type": "break", "object_type": "match_object", "color": "green" },
					{ "value": 1, "type": "break", "object_type": "match_object", "color": "purple" }
				],
				"bossMaxHealth": 115,
				"mode": "boss_battle",
				"episode": 1,
				"boosters": [ ],
				"game": 1,
				"data": [ ],
				"recipe_item": ""
			}
		]
	}
}
