{"data":{"level":[{"width":9,"spawn_table":[{"type":"coconut_1","percent":0.12}],"forced_spawn_queue":[],"bossScripts":[],
"numericId":87,"popsiclesToCollect":0,"objects":{"4_4":{"data":{},"type":"coconut_2"},"3_5":{"data":{},"type":"match_object"},"5_0":{"type":"match_object","data":{},"color":"red"},"6_6":{"type":"match_object","data":{},"color":"random"},"2_1":{"type":"match_object","data":{},"color":"yellow"},"2_7":{"data":{},"type":"match_object"},"4_6":{"type":"match_object","data":{},"color":"red"},"3_1":{"data":{},"type":"coconut_2"},"6_5":{"data":{},"type":"match_object"},"1_4":{"data":{},"type":"coconut_1"},"0_0":{"data":{},"type":"empty"},"8_5":{"data":{},"type":"match_object"},"2_6":{"data":{},"type":"coconut_1"},"8_0":{"data":{},"type":"coconut_2"},"8_3":{"type":"match_object","data":{},"color":"random"},"0_7":{"data":{},"type":"match_object"},"8_2":{"data":{},"type":"coconut_2"},"3_7":{"data":{},"type":"match_object"},"7_0":{"type":"match_object","data":{},"color":"yellow"},"7_2":{"data":{},"type":"empty"},"4_3":{"data":{},"type":"empty"},"3_3":{"data":{},"type":"coconut_2"},"7_1":{"data":{},"type":"empty"},"5_2":{"type":"bomb_breaker","data":{},"color":"green"},"5_6":{"data":{},"type":"match_object"},"4_2":{"data":{},"type":"empty"},"6_0":{"data":{},"type":"coconut_2"},"1_0":{"data":{},"type":"empty"},"0_2":{"type":"match_object","data":{},"color":"random"},"5_7":{"type":"match_object","data":{},"color":"red"},"4_5":{"data":{},"type":"match_object"},"2_2":{"data":{},"type":"match_object"},"8_6":{"data":{},"type":"empty"},"3_0":{"type":"match_object","data":{},"color":"green"},"0_1":{"data":{},"type":"empty"},"6_1":{"data":{},"type":"empty"},"4_1":{"data":{},"type":"empty"},"1_7":{"type":"match_object","data":{},"color":"red"},"1_1":{"data":{},"type":"match_object"},"8_7":{"data":{},"type":"empty"},"8_1":{"type":"match_object","data":{},"color":"red"},"7_7":{"data":{},"type":"empty"},"8_4":{"data":{},"type":"coconut_2"},"7_5":{"data":{},"type":"match_object"},"0_3":{"data":{},"type":"match_object"},"5_1":{"data":{},"type":"empty"},"0_5":{"type":"match_object","data":{},"color":"red"},"6_3":{"data":{},"type":"empty"},"1_5":{"type":"match_object","data":{},"color":"random"},"2_5":{"data":{},"type":"coconut_1"},"0_4":{"data":{},"type":"match_object"},"6_2":{"data":{},"type":"rainbow"},"3_2":{"data":{},"type":"match_object"},"3_6":{"data":{},"type":"match_object"},"7_3":{"data":{},"type":"empty"},"4_0":{"data":{},"type":"coconut_2"},"5_5":{"type":"match_object","data":{},"color":"random"},"2_0":{"type":"match_object","data":{},"color":"yellow"},"3_4":{"data":{},"type":"match_object"},"2_3":{"type":"match_object","data":{},"color":"random"},"1_6":{"type":"match_object","data":{},"color":"green"},"1_3":{"data":{},"type":"match_object"},"7_4":{"data":{},"type":"match_object"},"4_7":{"data":{},"type":"match_object"},"0_6":{"type":"match_object","data":{},"color":"red"},"7_6":{"type":"match_object","data":{},"color":"random"},"6_4":{"data":{},"type":"coconut_2"},"6_7":{"type":"match_object","data":{},"color":"red"},"5_3":{"data":{},"type":"empty"},"2_4":{"type":"match_object","data":{},"color":"random"},"5_4":{"type":"match_object","data":{},"color":"red"},"1_2":{"type":"match_object","data":{},"color":"yellow"}},"scores":[300,6500,12600],
"title":"Level 87","height":8,"background":"","colors":{"orange":2.2,"purple":2.2,"red":3.1,"green":1.25,"yellow":3.1},"layers":{"0":{},"1":{},"2":{"3_2":{"data":"up","type":"conveyor_belt"},"6_4":{"data":"right","type":"conveyor_belt"},"5_0":{"data":"left","type":"conveyor_belt"},"8_1":{"data":"down","type":"conveyor_belt"},"4_0":{"data":"left","type":"conveyor_belt"},"6_0":{"data":"left","type":"conveyor_belt"},"3_3":{"data":"up","type":"conveyor_belt"},"3_4":{"data":"right","type":"conveyor_belt"},"3_1":{"data":"up","type":"conveyor_belt"},"4_4":{"data":"right","type":"conveyor_belt"},"7_4":{"data":"right","type":"conveyor_belt"},"7_0":{"data":"left","type":"conveyor_belt"},"8_0":{"data":"left","type":"conveyor_belt"},"3_0":{"data":"up","type":"conveyor_belt"},"8_3":{"data":"down","type":"conveyor_belt"},"8_4":{"data":"down","type":"conveyor_belt"},"8_2":{"data":"down","type":"conveyor_belt"},"5_4":{"data":"right","type":"conveyor_belt"}},"3":{},"4":{},"5":{},"6":{},"7":{},"8":{},"9":{},"10":{},"11":{},"12":{},"13":{},"15":{},"16":{},"17":{},"18":{}},"limit":[{"value":33,"type":"move"}],"spawners":{},"pregame_boosters":[],"goals":[{"value":3,"type":"customer","object_type":"coconut_2"},{"value":10,"type":"customer","object_type":"match_object","color":"red"},{"value":10,"type":"customer","object_type":"match_object","color":"yellow"},{"value":3,"type":"customer","object_type":"coconut_2"},{"value":10,"type":"customer","object_type":"match_object","color":"red"},{"value":10,"type":"customer","object_type":"match_object","color":"yellow"},{"value":3,"type":"customer","object_type":"coconut_2"},{"value":10,"type":"customer","object_type":"match_object","color":"red"},{"value":10,"type":"customer","object_type":"match_object","color":"yellow"},{"value":3,"type":"customer","object_type":"coconut_2"},{"value":10,"type":"customer","object_type":"match_object","color":"red"},{"value":10,"type":"customer","object_type":"match_object","color":"yellow"},{"value":3,"type":"customer","object_type":"coconut_2"}],"bossMaxHealth":0,"mode":"order_fulfillment","episode":6,"boosters":["single_block_breaker","row_breaker","column_breaker"],"game":7,"data":[],"recipe_item":""
}]}}