{
	"data": {
		"level": [
			{
				"width": 9,
				"spawn_table": [ ],
				"forced_spawn_queue": [ ],
				"bossScripts": [ ],
				"numericId": 27,
				"popsiclesToCollect": 0,
				"objects": {
					"0_7": { "data": { }, "type": "empty" },
					"1_3": { "data": "2", "type": "sugar" },
					"5_0": { "data": { }, "type": "invisible_brick" },
					"6_6": { "type": "match_object", "data": { }, "color": "random2" },
					"5_2": { "data": "2", "type": "sugar" },
					"7_7": { "data": { }, "type": "empty" },
					"2_7": { "data": { }, "type": "match_object" },
					"8_4": { "data": { }, "type": "empty" },
					"3_1": { "data": { }, "type": "invisible_brick" },
					"1_4": { "data": { }, "type": "empty" },
					"7_5": { "data": { }, "type": "empty" },
					"0_3": { "data": { }, "type": "empty" },
					"8_5": { "data": { }, "type": "empty" },
					"5_1": { "data": { }, "type": "invisible_brick" },
					"0_5": { "data": { }, "type": "empty" },
					"1_5": { "data": { }, "type": "empty" },
					"2_5": { "type": "match_object", "data": { }, "modifierType": "ice_cage", "color": "random" },
					"4_6": { "data": { }, "type": "match_object" },
					"0_4": { "data": { }, "type": "empty" },
					"8_7": { "data": { }, "type": "empty" },
					"6_2": { "data": "2", "type": "sugar" },
					"2_6": { "type": "match_object", "data": { }, "color": "random" },
					"3_2": { "data": "2", "type": "sugar" },
					"3_6": { "data": { }, "type": "match_object" },
					"7_3": { "data": "2", "type": "sugar" },
					"3_7": { "type": "match_object", "data": { }, "color": "random" },
					"4_0": { "type": "x_breaker", "data": { }, "color": "yellow" },
					"5_5": { "type": "match_object", "data": { }, "modifierType": "ice_cage" },
					"7_2": { "data": "2", "type": "sugar" },
					"0_6": { "data": { }, "type": "empty" },
					"4_7": { "data": { }, "type": "match_object" },
					"4_1": { "data": { }, "type": "invisible_brick" },
					"1_6": { "data": { }, "type": "empty" },
					"7_6": { "data": { }, "type": "empty" },
					"5_7": { "type": "match_object", "data": { }, "color": "random2" },
					"4_5": { "type": "match_object", "data": { }, "modifierType": "ice_cage" },
					"8_3": { "data": { }, "type": "empty" },
					"2_2": { "data": "2", "type": "sugar" },
					"8_6": { "data": { }, "type": "empty" },
					"3_0": { "data": { }, "type": "invisible_brick" },
					"3_5": { "type": "match_object", "data": { }, "modifierType": "ice_cage" },
					"7_4": { "data": { }, "type": "empty" },
					"6_7": { "data": { }, "type": "match_object" },
					"6_5": { "type": "match_object", "data": { }, "modifierType": "ice_cage", "color": "random2" },
					"5_6": { "data": { }, "type": "match_object" },
					"1_7": { "data": { }, "type": "empty" },
					"1_2": { "data": "2", "type": "sugar" }
				},
				"scores": [ 1500, 7900, 14200 ],
				"title": "Level 27",
				"height": 8,
				"background": "",
				"colors": { "blue": 4, "purple": 2, "red": 2.5, "yellow": 3, "green": 1.5 },
				"layers": {
					"0": { },
					"1": { },
					"2": { },
					"3": { },
					"4": { },
					"5": { },
					"6": { },
					"7": { },
					"8": { },
					"9": { },
					"10": {
						"4_0": { "type": "cracker", "data": "1", "color": "white" },
						"0_1": { "type": "cracker", "data": "1", "color": "white" },
						"8_1": { "type": "cracker", "data": "1", "color": "white" },
						"0_0": { "type": "cracker", "data": "1", "color": "white" },
						"2_1": { "type": "cracker", "data": "1", "color": "white" },
						"4_4": { "type": "cracker", "data": "1", "color": "white" },
						"6_2": { "type": "cracker", "data": "1", "color": "white" },
						"6_3": { "type": "cracker", "data": "1", "color": "white" },
						"7_2": { "type": "cracker", "data": "1", "color": "white" },
						"5_3": { "type": "cracker", "data": "1", "color": "white" },
						"8_0": { "type": "cracker", "data": "1", "color": "white" },
						"3_2": { "type": "cracker", "data": "1", "color": "white" },
						"3_4": { "type": "cracker", "data": "1", "color": "white" },
						"7_0": { "type": "cracker", "data": "1", "color": "white" },
						"8_2": { "type": "cracker", "data": "1", "color": "white" },
						"6_0": { "type": "cracker", "data": "1", "color": "white" },
						"2_0": { "type": "cracker", "data": "1", "color": "white" },
						"3_3": { "type": "cracker", "data": "1", "color": "white" },
						"7_1": { "type": "cracker", "data": "1", "color": "white" },
						"7_3": { "type": "cracker", "data": "1", "color": "white" },
						"2_3": { "type": "cracker", "data": "1", "color": "white" },
						"4_2": { "type": "cracker", "data": "1", "color": "white" },
						"4_3": { "type": "cracker", "data": "1", "color": "white" },
						"1_0": { "type": "cracker", "data": "1", "color": "white" },
						"1_3": { "type": "cracker", "data": "1", "color": "white" },
						"5_2": { "type": "cracker", "data": "1", "color": "white" },
						"6_1": { "type": "cracker", "data": "1", "color": "white" },
						"2_2": { "type": "cracker", "data": "1", "color": "white" },
						"1_1": { "type": "cracker", "data": "1", "color": "white" },
						"0_2": { "type": "cracker", "data": "1", "color": "white" },
						"6_4": { "type": "cracker", "data": "1", "color": "white" },
						"2_4": { "type": "cracker", "data": "1", "color": "white" },
						"5_4": { "type": "cracker", "data": "1", "color": "white" },
						"1_2": { "type": "cracker", "data": "1", "color": "white" }
					},
					"11": { },
					"12": { },
					"13": { },
					"15": { },
					"16": { },
					"17": { },
					"18": { }
				},
				"limit": [ { "value": 25, "type": "move" } ],
				"spawners": { },
				"pregame_boosters": [ ],
				"goals": [ { "value": 1, "type": "break_all", "object_type": "cracker" },
						   { "value": 7, "type": "customer", "object_type": "match_object", "color": "blue" }
				],
				"bossMaxHealth": 0,
				"mode": "clear_juice",
				"episode": 2,
				"boosters": [ "single_block_breaker", "column_breaker", "row_breaker" ],
				"game": 12,
				"data": [ ],
				"recipe_item": ""
			}
		]
	}
}
