{"data":{"level":[{"width":9,"spawn_table":[],"forced_spawn_queue":[],"bossScripts":[],
"numericId":15,"popsiclesToCollect":0,"objects":{"4_4":{"data":{},"type":"match_object"},"3_5":{"data":{},"type":"match_object"},"5_0":{"data":"1","type":"sugar"},"6_6":{"data":{},"type":"match_object"},"2_1":{"data":"1","type":"sugar"},"2_7":{"data":{},"type":"match_object"},"4_6":{"data":{},"type":"match_object"},"3_1":{"data":"1","type":"sugar"},"6_5":{"type":"match_object","data":{},"color":"random3"},"1_4":{"data":{},"type":"match_object"},"0_0":{"data":{},"type":"match_object"},"8_5":{"type":"match_object","data":{},"color":"random3"},"2_6":{"data":{},"type":"match_object"},"8_0":{"data":{},"type":"match_object"},"8_3":{"type":"match_object","data":{},"color":"random"},"0_7":{"data":{},"type":"match_object"},"8_2":{"data":{},"type":"match_object"},"3_7":{"type":"match_object","data":{},"color":"blue"},"7_0":{"data":{},"type":"match_object"},"7_2":{"type":"match_object","data":{},"color":"random"},"4_3":{"data":{},"type":"empty"},"3_3":{"data":{},"type":"empty"},"7_1":{"type":"match_object","data":{},"color":"random"},"5_2":{"data":"1","type":"sugar"},"5_6":{"data":{},"type":"match_object"},"4_2":{"data":"1","type":"sugar"},"6_0":{"data":"1","type":"sugar"},"1_0":{"type":"match_object","data":{},"color":"random2"},"0_2":{"type":"match_object","data":{},"color":"random2"},"5_7":{"data":{},"type":"match_object"},"4_5":{"type":"match_object","data":{},"color":"random"},"2_2":{"data":"1","type":"sugar"},"8_6":{"data":{},"type":"match_object"},"3_0":{"data":"1","type":"sugar"},"0_1":{"data":{},"type":"match_object"},"6_1":{"data":"1","type":"sugar"},"4_1":{"data":"1","type":"sugar"},"1_7":{"data":{},"type":"match_object"},"1_1":{"type":"match_object","data":{},"color":"random2"},"8_7":{"data":{},"type":"match_object"},"8_1":{"data":{},"type":"match_object"},"7_7":{"data":{},"type":"match_object"},"8_4":{"data":{},"type":"match_object"},"7_5":{"data":{},"type":"match_object"},"0_3":{"data":{},"type":"match_object"},"5_1":{"data":"1","type":"sugar"},"0_5":{"data":{},"type":"match_object"},"6_3":{"data":{},"type":"empty"},"1_5":{"type":"match_object","data":{},"color":"yellow"},"2_5":{"type":"match_object","data":{},"color":"random"},"0_4":{"data":{},"type":"match_object"},"6_2":{"data":"1","type":"sugar"},"3_2":{"data":"1","type":"sugar"},"3_6":{"type":"match_object","data":{},"color":"random"},"7_3":{"data":{},"type":"match_object"},"4_0":{"data":"1","type":"sugar"},"5_5":{"type":"match_object","data":{},"color":"blue"},"2_0":{"data":"1","type":"sugar"},"3_4":{"type":"match_object","data":{},"color":"blue"},"2_3":{"data":{},"type":"empty"},"1_6":{"data":{},"type":"match_object"},"1_3":{"type":"match_object","data":{},"color":"random2"},"7_4":{"type":"match_object","data":{},"color":"random"},"4_7":{"data":{},"type":"match_object"},"0_6":{"data":{},"type":"match_object"},"7_6":{"type":"match_object","data":{},"color":"random3"},"6_4":{"data":{},"type":"match_object"},"6_7":{"data":{},"type":"match_object"},"5_3":{"data":{},"type":"empty"},"2_4":{"data":{},"type":"match_object"},"5_4":{"data":{},"type":"match_object"},"1_2":{"data":{},"type":"match_object"}},"scores":[1300,13600,25800],
"title":"Level 15","height":8,"background":"","colors":{"blue":5,"purple":3,"yellow":1,"orange":5,"red":3,"green":1},"layers":{"0":{},"1":{},"2":{},"3":{},"4":{},"5":{},"6":{},"7":{},"8":{},"9":{},"10":{"4_4":{"type":"cracker","data":"1","color":"white"},"7_6":{"type":"cracker","data":"1","color":"white"},"5_0":{"type":"cracker","data":"1","color":"white"},"6_6":{"type":"cracker","data":"1","color":"white"},"2_1":{"type":"cracker","data":"1","color":"white"},"2_7":{"type":"cracker","data":"1","color":"white"},"4_6":{"type":"cracker","data":"1","color":"white"},"3_1":{"type":"cracker","data":"1","color":"white"},"6_5":{"type":"cracker","data":"1","color":"white"},"1_4":{"type":"cracker","data":"1","color":"white"},"0_0":{"type":"cracker","data":"1","color":"white"},"8_5":{"type":"cracker","data":"1","color":"white"},"2_6":{"type":"cracker","data":"1","color":"white"},"8_0":{"type":"cracker","data":"1","color":"white"},"8_3":{"type":"cracker","data":"1","color":"white"},"0_7":{"type":"cracker","data":"1","color":"white"},"8_7":{"type":"cracker","data":"1","color":"white"},"3_7":{"type":"cracker","data":"1","color":"white"},"7_0":{"type":"cracker","data":"1","color":"white"},"8_2":{"type":"cracker","data":"1","color":"white"},"6_0":{"type":"cracker","data":"1","color":"white"},"1_0":{"type":"cracker","data":"1","color":"white"},"7_1":{"type":"cracker","data":"1","color":"white"},"5_2":{"type":"cracker","data":"1","color":"white"},"5_6":{"type":"cracker","data":"1","color":"white"},"4_2":{"type":"cracker","data":"1","color":"white"},"7_2":{"type":"cracker","data":"1","color":"white"},"0_2":{"type":"cracker","data":"1","color":"white"},"5_7":{"type":"cracker","data":"1","color":"white"},"4_5":{"type":"cracker","data":"1","color":"white"},"2_2":{"type":"cracker","data":"1","color":"white"},"8_6":{"type":"cracker","data":"1","color":"white"},"3_0":{"type":"cracker","data":"1","color":"white"},"0_1":{"type":"cracker","data":"1","color":"white"},"6_1":{"type":"cracker","data":"1","color":"white"},"4_1":{"type":"cracker","data":"1","color":"white"},"1_7":{"type":"cracker","data":"1","color":"white"},"1_1":{"type":"cracker","data":"1","color":"white"},"8_1":{"type":"cracker","data":"1","color":"white"},"7_7":{"type":"cracker","data":"1","color":"white"},"8_4":{"type":"cracker","data":"1","color":"white"},"7_5":{"type":"cracker","data":"1","color":"white"},"0_3":{"type":"cracker","data":"1","color":"white"},"5_1":{"type":"cracker","data":"1","color":"white"},"0_5":{"type":"cracker","data":"1","color":"white"},"1_5":{"type":"cracker","data":"1","color":"white"},"2_5":{"type":"cracker","data":"1","color":"white"},"0_4":{"type":"cracker","data":"1","color":"white"},"5_5":{"type":"cracker","data":"1","color":"white"},"3_2":{"type":"cracker","data":"1","color":"white"},"3_6":{"type":"cracker","data":"1","color":"white"},"7_3":{"type":"cracker","data":"1","color":"white"},"4_0":{"type":"cracker","data":"1","color":"white"},"6_2":{"type":"cracker","data":"1","color":"white"},"3_4":{"type":"cracker","data":"1","color":"white"},"4_7":{"type":"cracker","data":"1","color":"white"},"1_6":{"type":"cracker","data":"1","color":"white"},"1_3":{"type":"cracker","data":"1","color":"white"},"7_4":{"type":"cracker","data":"1","color":"white"},"0_6":{"type":"cracker","data":"1","color":"white"},"3_5":{"type":"cracker","data":"1","color":"white"},"6_4":{"type":"cracker","data":"1","color":"white"},"6_7":{"type":"cracker","data":"1","color":"white"},"2_0":{"type":"cracker","data":"1","color":"white"},"2_4":{"type":"cracker","data":"1","color":"white"},"5_4":{"type":"cracker","data":"1","color":"white"},"1_2":{"type":"cracker","data":"1","color":"white"}},"11":{},"12":{},"13":{},"15":{},"16":{},"17":{},"18":{}},"limit":[{"value":28,"type":"move"}],"spawners":{},"pregame_boosters":[],"goals":[{"value":1,"type":"break_all","object_type":"cracker"}],"bossMaxHealth":0,"mode":"clear_juice","episode":1,"boosters":["single_block_breaker","row_breaker"],"game":15,"data":[],"recipe_item":""
}]}}