{"data":{"level":[{"width":9,"spawn_table":[{"type":"bee","percent":0.05}],"forced_spawn_queue":[],"bossScripts":[],
"numericId":66,"popsiclesToCollect":0,"objects":{"4_4":{"data":"3","type":"sugar"},"3_5":{"type":"match_object","data":{},"color":"green"},"5_0":{"data":"10000","type":"cow"},"6_6":{"type":"column_breaker","data":{},"color":"green"},"2_1":{"data":{},"type":"empty"},"2_7":{"data":{},"type":"match_object"},"4_6":{"data":"3","type":"sugar"},"3_1":{"data":{},"type":"empty"},"6_5":{"data":{},"type":"bee"},"1_4":{"data":{},"type":"match_object"},"0_0":{"data":{},"type":"empty"},"8_5":{"data":{},"type":"bee"},"2_6":{"type":"match_object","data":{},"color":"green"},"8_0":{"data":"10000","type":"cow"},"8_3":{"data":"1","type":"sugar"},"0_7":{"data":{},"type":"match_object"},"8_2":{"data":"3","type":"sugar"},"3_7":{"type":"match_object","data":{},"color":"green"},"7_0":{"data":"10000","type":"cow"},"7_2":{"data":"3","type":"sugar"},"4_3":{"data":{},"type":"empty"},"3_3":{"data":{},"type":"empty"},"7_1":{"data":"2","type":"sugar"},"5_2":{"data":"3","type":"sugar"},"5_6":{"data":{},"type":"bee"},"4_2":{"data":{},"type":"empty"},"6_0":{"data":"10000","type":"cow"},"1_0":{"data":{},"type":"empty"},"0_2":{"data":{},"type":"empty"},"5_7":{"type":"column_breaker","data":{},"color":"green"},"4_5":{"data":"3","type":"sugar"},"2_2":{"data":{},"type":"empty"},"8_6":{"type":"row_breaker","data":{},"color":"green"},"3_0":{"data":{},"type":"empty"},"0_1":{"data":{},"type":"empty"},"6_1":{"data":"2","type":"sugar"},"4_1":{"data":{},"type":"empty"},"1_7":{"data":{},"type":"match_object"},"1_1":{"data":{},"type":"empty"},"8_7":{"data":{},"type":"bee"},"8_1":{"data":"2","type":"sugar"},"7_7":{"type":"row_breaker","data":{},"color":"green"},"8_4":{"type":"column_breaker","data":{},"color":"green"},"7_5":{"type":"column_breaker","data":{},"color":"green"},"0_3":{"data":{},"type":"empty"},"5_1":{"data":"2","type":"sugar"},"0_5":{"data":{},"type":"match_object"},"6_3":{"data":"1","type":"sugar"},"1_5":{"data":{},"type":"match_object"},"2_5":{"data":{},"type":"match_object"},"0_4":{"data":{},"type":"match_object"},"6_2":{"data":"3","type":"sugar"},"3_2":{"data":{},"type":"empty"},"3_6":{"data":{},"type":"match_object"},"7_3":{"data":"1","type":"sugar"},"4_0":{"data":{},"type":"empty"},"5_5":{"type":"row_breaker","data":{},"color":"green"},"2_0":{"data":{},"type":"empty"},"3_4":{"type":"match_object","data":{},"color":"green"},"2_3":{"data":{},"type":"empty"},"1_6":{"data":{},"type":"match_object"},"1_3":{"data":{},"type":"empty"},"7_4":{"data":{},"type":"bee"},"4_7":{"data":"3","type":"sugar"},"0_6":{"data":{},"type":"match_object"},"7_6":{"data":{},"type":"bee"},"6_4":{"type":"row_breaker","data":{},"color":"green"},"6_7":{"data":{},"type":"bee"},"5_3":{"data":"1","type":"sugar"},"2_4":{"data":{},"type":"match_object"},"5_4":{"data":{},"type":"bee"},"1_2":{"data":{},"type":"empty"}},"scores":[1500,10300,19100],
"title":"Level 66","height":8,"background":"","colors":{"orange":1,"blue":3,"purple":3,"red":1,"green":3},"layers":{"0":{},"1":{},"2":{},"3":{},"4":{},"5":{},"6":{},"7":{},"8":{},"9":{},"10":{},"11":{},"12":{"1_5":{"type":"honey","data":{},"color":"white"},"3_4":{"type":"honey","data":{},"color":"white"},"3_7":{"type":"honey","data":{},"color":"white"},"2_7":{"type":"honey","data":{},"color":"white"},"0_6":{"type":"honey","data":{},"color":"white"},"2_6":{"type":"honey","data":{},"color":"white"},"3_5":{"type":"honey","data":{},"color":"white"},"1_6":{"type":"honey","data":{},"color":"white"},"0_5":{"type":"honey","data":{},"color":"white"},"3_6":{"type":"honey","data":{},"color":"white"},"2_5":{"type":"honey","data":{},"color":"white"},"0_7":{"type":"honey","data":{},"color":"white"},"0_4":{"type":"honey","data":{},"color":"white"},"2_4":{"type":"honey","data":{},"color":"white"},"1_7":{"type":"honey","data":{},"color":"white"},"1_4":{"type":"honey","data":{},"color":"white"}},"13":{},"15":{},"16":{},"17":{},"18":{}},"limit":[{"value":22,"type":"move"}],"spawners":{},"pregame_boosters":[],"goals":[{"value":15,"type":"customer","object_type":"match_object","color":"green"},{"value":10,"type":"customer","object_type":"honey"},{"value":5,"type":"customer","object_type":"cow"},{"value":15,"type":"customer","object_type":"match_object","color":"green"},{"value":10,"type":"customer","object_type":"honey"},{"value":5,"type":"customer","object_type":"cow"},{"value":10,"type":"customer","object_type":"match_object","color":"green"}],"bossMaxHealth":0,"mode":"order_fulfillment","episode":5,"boosters":["single_block_breaker","row_breaker","column_breaker"],"game":6,"data":[],"recipe_item":""
}]}}