{
	"data": {
		"level": [
			{
				"width": 9,
				"spawn_table": [ ],
				"forced_spawn_queue": [ ],
				"bossScripts": [ ],
				"numericId": 3,
				"popsiclesToCollect": 0,
				"objects": {
					"4_4": { "type": "match_object", "data": { }, "color": "purple" },
					"3_5": { "type": "match_object", "data": { }, "color": "yellow" },
					"5_0": { "type": "match_object", "data": { }, "color": "red" },
					"6_6": { "type": "match_object", "data": { }, "color": "purple" },
					"2_1": { "type": "match_object", "data": { }, "color": "red" },
					"2_7": { "type": "match_object", "data": { }, "color": "blue" },
					"4_6": { "type": "match_object", "data": { }, "color": "yellow" },
					"3_1": { "type": "match_object", "data": { }, "color": "yellow" },
					"6_5": { "type": "match_object", "data": { }, "color": "red" },
					"1_4": { "type": "match_object", "data": { }, "color": "red" },
					"0_0": { "type": "match_object", "data": { }, "color": "purple" },
					"8_5": { "type": "match_object", "data": { }, "color": "blue" },
					"2_6": { "type": "match_object", "data": { }, "color": "purple" },
					"8_0": { "type": "match_object", "data": { }, "color": "purple" },
					"8_3": { "type": "match_object", "data": { }, "color": "red" },
					"0_7": { "type": "match_object", "data": { }, "color": "red" },
					"8_2": { "type": "match_object", "data": { }, "color": "yellow" },
					"3_7": { "type": "match_object", "data": { }, "color": "purple" },
					"7_0": { "type": "match_object", "data": { }, "color": "blue" },
					"7_2": { "type": "match_object", "data": { }, "color": "green" },
					"4_3": { "type": "match_object", "data": { }, "color": "red" },
					"3_3": { "type": "match_object", "data": { }, "color": "purple" },
					"7_1": { "type": "match_object", "data": { }, "color": "yellow" },
					"5_2": { "type": "match_object", "data": { }, "color": "blue" },
					"5_6": { "type": "match_object", "data": { }, "color": "blue" },
					"4_2": { "type": "match_object", "data": { }, "color": "yellow" },
					"6_0": { "type": "match_object", "data": { }, "color": "yellow" },
					"1_0": { "type": "match_object", "data": { }, "color": "orange" },
					"0_2": { "type": "match_object", "data": { }, "color": "yellow" },
					"5_7": { "type": "match_object", "data": { }, "color": "yellow" },
					"4_5": { "type": "match_object", "data": { }, "color": "blue" },
					"2_2": { "type": "match_object", "data": { }, "color": "purple" },
					"8_6": { "type": "match_object", "data": { }, "color": "yellow" },
					"3_0": { "type": "match_object", "data": { }, "color": "blue" },
					"0_1": { "type": "match_object", "data": { }, "color": "blue" },
					"6_1": { "type": "match_object", "data": { }, "color": "green" },
					"4_1": { "type": "match_object", "data": { }, "color": "blue" },
					"1_7": { "type": "match_object", "data": { }, "color": "yellow" },
					"1_1": { "type": "match_object", "data": { }, "color": "orange" },
					"8_7": { "type": "match_object", "data": { }, "color": "red" },
					"8_1": { "type": "match_object", "data": { }, "color": "green" },
					"7_7": { "type": "match_object", "data": { }, "color": "purple" },
					"8_4": { "type": "match_object", "data": { }, "color": "purple" },
					"7_5": { "type": "match_object", "data": { }, "color": "green" },
					"0_3": { "type": "match_object", "data": { }, "color": "red" },
					"5_1": { "type": "match_object", "data": { }, "color": "green" },
					"0_5": { "type": "match_object", "data": { }, "color": "blue" },
					"6_3": { "type": "match_object", "data": { }, "color": "blue" },
					"1_5": { "type": "match_object", "data": { }, "color": "orange" },
					"2_5": { "type": "match_object", "data": { }, "color": "red" },
					"0_4": { "type": "match_object", "data": { }, "color": "orange" },
					"6_2": { "type": "match_object", "data": { }, "color": "purple" },
					"3_2": { "type": "match_object", "data": { }, "color": "red" },
					"3_6": { "type": "match_object", "data": { }, "color": "red" },
					"7_3": { "type": "match_object", "data": { }, "color": "green" },
					"4_0": { "type": "match_object", "data": { }, "color": "purple" },
					"5_5": { "type": "match_object", "data": { }, "color": "purple" },
					"2_0": { "type": "match_object", "data": { }, "color": "yellow" },
					"3_4": { "type": "match_object", "data": { }, "color": "orange" },
					"2_3": { "type": "match_object", "data": { }, "color": "blue" },
					"1_6": { "type": "match_object", "data": { }, "color": "blue" },
					"1_3": { "type": "match_object", "data": { }, "color": "orange" },
					"7_4": { "type": "match_object", "data": { }, "color": "blue" },
					"4_7": { "type": "match_object", "data": { }, "color": "red" },
					"0_6": { "type": "match_object", "data": { }, "color": "yellow" },
					"7_6": { "type": "match_object", "data": { }, "color": "green" },
					"6_4": { "type": "match_object", "data": { }, "color": "yellow" },
					"6_7": { "type": "match_object", "data": { }, "color": "blue" },
					"5_3": { "type": "match_object", "data": { }, "color": "yellow" },
					"2_4": { "type": "match_object", "data": { }, "color": "orange" },
					"5_4": { "type": "match_object", "data": { }, "color": "red" },
					"1_2": { "type": "match_object", "data": { }, "color": "blue" }
				},
				"scores": [ 1500, 3000, 5000 ],
				"title": "Level 3",
				"height": 8,
				"background": "",
				"colors": { "blue": 1, "purple": 1, "yellow": 1, "orange": 1, "red": 1, "green": 1 },
				"layers": { "0": { }, "1": { }, "2": { }, "3": { }, "4": { }, "5": { }, "6": { }, "7": { }, "8": { }, "9": { }, "10": { }, "11": { }, "12": { }, "13": { }, "15": { }, "16": { }, "17": { }, "18": { } },
				"limit": [ { "value": 30, "type": "move" } ],
				"spawners": { },
				"pregame_boosters": [ ],
				"goals": [
					{ "value": 7, "type": "customer", "object_type": "match_object", "color": "orange" },
					{ "value": 7, "type": "customer", "object_type": "match_object", "color": "green" },
					{ "value": 7, "type": "customer", "object_type": "match_object", "color": "red" },
					{ "value": 7, "type": "customer", "object_type": "match_object", "color": "yellow" },
					{ "value": 7, "type": "customer", "object_type": "match_object", "color": "blue" },
					{ "value": 7, "type": "customer", "object_type": "match_object", "color": "purple" }
				],
				"bossMaxHealth": 0,
				"mode": "order_fulfillment",
				"episode": 1,
				"boosters": [ ],
				"game": 3,
				"data": [ ],
				"recipe_item": ""
			}
		]
	}
}
