{
	"data": {
		"level": [
			{
				"width": 9,
				"spawn_table": [ ],
				"forced_spawn_queue": [ ],
				"bossScripts": [ ],
				"numericId": 21,
				"popsiclesToCollect": 12,
				"objects": {
					
					"0_0": { "data": { }, "type": "match_object" },
					"1_0": { "data": "2", "type": "sugar" },
					"2_0": { "type": "match_object", "data": { }, "color": "random" },
					"3_0": { "data": { }, "type": "match_object" },
					"4_0": { "data": "1", "type": "sugar" },
					"5_0": { "data": { }, "type": "match_object" },
					"6_0": { "data": { }, "type": "match_object" },
					"7_0": { "data": { }, "type": "match_object" },
					"8_0": { "data": { }, "type": "match_object" },
				
					"0_1": { "data": { }, "type": "match_object" },
					"1_1": { "data": { }, "type": "match_object" },
					"2_1": { "data": { }, "type": "match_object" },
					"3_1": { "data": { }, "type": "match_object" },
					"4_1": { "data": "1", "type": "sugar" },
					"5_1": { "data": { }, "type": "match_object" },
					"6_1": { "data": "1", "type": "sugar" },
					"7_1": { "data": "2", "type": "sugar" },
					"8_1": { "data": "2", "type": "sugar" },
					
					"0_2": { "data": { }, "type": "match_object" },
					"1_2": { "data": { }, "type": "match_object" },
					"2_2": { "data": { }, "type": "match_object" },
					"3_2": { "data": { }, "type": "match_object" },
					"4_2": { "data": { }, "type": "match_object" },
					"5_2": { "data": { }, "type": "match_object" },
					"6_2": { "data": { }, "type": "match_object" },
					"7_2": { "data": { }, "type": "match_object" },
					"8_2": { "data": { }, "type": "match_object" },
					
					"0_3": { "data": { }, "type": "match_object" },
					"1_3": { "data": { }, "type": "match_object" },
					"2_3": { "data": { }, "type": "match_object" },
					"3_3": { "data": { }, "type": "match_object" },
					"4_3": { "data": { }, "type": "match_object" },
					"5_3": { "data": { }, "type": "match_object" },
					"6_3": { "data": { }, "type": "match_object" },
					"7_3": { "data": { }, "type": "match_object" },
					"8_3": { "data": { }, "type": "match_object" },
					
					"0_4": { "data": { }, "type": "match_object" },
					"1_4": { "data": { }, "type": "match_object" },
					"2_4": { "data": { }, "type": "match_object" },
					"3_4": { "data": { }, "type": "match_object" },
					"4_4": { "data": { }, "type": "match_object" },
					"5_4": { "data": { }, "type": "match_object" },
					"6_4": { "data": { }, "type": "match_object" },
					"7_4": { "data": { }, "type": "match_object" },
					"8_4": { "data": { }, "type": "match_object" },
					
					"0_5": { "data": { }, "type": "match_object" },
					"1_5": { "data": { }, "type": "match_object" },
					"2_5": { "data": { }, "type": "match_object" },
					"3_5": { "data": { }, "type": "match_object" },
					"4_5": { "data": { }, "type": "match_object" },
					"5_5": { "data": { }, "type": "match_object" },
					"6_5": { "data": { }, "type": "match_object" },
					"7_5": { "data": { }, "type": "match_object" },
					"8_5": { "data": { }, "type": "match_object" },
					
					"0_6": { "data": { }, "type": "match_object" },
					"1_6": { "data": { }, "type": "match_object" },
					"2_6": { "data": { }, "type": "match_object" },
					"3_6": { "data": { }, "type": "match_object" },
					"4_6": { "data": { }, "type": "match_object" },
					"5_6": { "data": { }, "type": "match_object" },
					"6_6": { "data": { }, "type": "match_object" },
					"7_6": { "data": { }, "type": "match_object" },
					"8_6": { "data": { }, "type": "match_object" },
					
					"0_7": { "data": { }, "type": "match_object" },
					"1_7": { "data": { }, "type": "match_object" },
					"2_7": { "data": { }, "type": "match_object" },
					"3_7": { "data": { }, "type": "match_object" },
					"4_7": { "data": { }, "type": "match_object" },
					"5_7": { "data": { }, "type": "match_object" },
					"6_7": { "data": { }, "type": "match_object" },
					"7_7": { "data": { }, "type": "match_object" },
					"8_7": { "data": { }, "type": "match_object" }
					
				},
				"scores": [ 2400, 11800, 21200 ],
				"title": "Level 21",
				"height": 8,
				"background": "",
				"colors": { "orange": 3, "blue": 3.7, "purple": 2, "red": 2, "yellow": 1.2 },
				"layers": {
					"0": { },
					"1": { },
					"2": {
						"3_2": { "data": "down", "type": "conveyor_belt" },
						"3_4": { "data": "down", "type": "conveyor_belt" },
						"5_0": { "data": "up", "type": "conveyor_belt" },
						"4_0": { "data": "right", "type": "conveyor_belt" },
						"5_4": { "data": "up", "type": "conveyor_belt" },
						"3_3": { "data": "down", "type": "conveyor_belt" },
						"5_2": { "data": "up", "type": "conveyor_belt" },
						"3_7": { "data": "down", "type": "conveyor_belt" },
						"5_6": { "data": "up", "type": "conveyor_belt" },
						"3_5": { "data": "down", "type": "conveyor_belt" },
						"5_7": { "data": "left", "type": "conveyor_belt" },
						"4_7": { "data": "left", "type": "conveyor_belt" },
						"5_1": { "data": "up", "type": "conveyor_belt" },
						"5_3": { "data": "up", "type": "conveyor_belt" },
						"3_0": { "data": "right", "type": "conveyor_belt" },
						"3_6": { "data": "down", "type": "conveyor_belt" },
						"3_1": { "data": "down", "type": "conveyor_belt" },
						"5_5": { "data": "up", "type": "conveyor_belt" }
					},
					"3": { },
					"4": {
						"4_4": { "data": "set_1x2", "type": "popsicle" },
						"7_1": { "data": "rnd_1x2", "type": "popsicle" },
						"1_1": { "data": "rnd_1x2", "type": "popsicle" },
						"7_7": { "data": "rnd_1x2", "type": "popsicle" },
						"2_2": { "data": "rnd_1x2", "type": "popsicle" },
						"2_7": { "data": "rnd_1x2", "type": "popsicle" },
						"4_6": { "data": "set_1x2", "type": "popsicle" },
						"4_2": { "data": "set_1x2", "type": "popsicle" },
						"7_5": { "data": "rnd_1x2", "type": "popsicle" },
						"6_2": { "data": "rnd_1x2", "type": "popsicle" },
						"8_5": { "data": "rnd_1x2", "type": "popsicle" },
						"0_5": { "data": "rnd_1x2", "type": "popsicle" },
						"1_5": { "data": "rnd_1x2", "type": "popsicle" },
						"2_5": { "data": "set_1x2", "type": "popsicle" },
						"6_7": { "data": "rnd_1x2", "type": "popsicle" },
						"6_5": { "data": "set_1x2", "type": "popsicle" },
						"1_7": { "data": "rnd_1x2", "type": "popsicle" }
					},
					"5": { },
					"6": { },
					"7": { },
					"8": {
						"4_4": { "type": "ice", "data": "2", "color": "white" },
						"4_3": { "type": "ice", "data": "2", "color": "white" },
						"6_6": { "type": "ice", "data": "2", "color": "white" },
						"7_7": { "type": "ice", "data": "2", "color": "white" },
						"2_1": { "type": "ice", "data": "2", "color": "white" },
						"2_7": { "type": "ice", "data": "2", "color": "white" },
						"4_6": { "type": "ice", "data": "2", "color": "white" },
						"1_1": { "type": "ice", "data": "2", "color": "white" },
						"6_5": { "type": "ice", "data": "2", "color": "white" },
						"1_4": { "type": "ice", "data": "2", "color": "white" },
						"7_5": { "type": "ice", "data": "2", "color": "white" },
						"0_0": { "type": "ice", "data": "2", "color": "white" },
						"8_4": { "type": "ice", "data": "2", "color": "white" },
						"8_5": { "type": "ice", "data": "2", "color": "white" },
						"0_5": { "type": "ice", "data": "2", "color": "white" },
						"8_0": { "type": "ice", "data": "2", "color": "white" },
						"0_6": { "type": "ice", "data": "2", "color": "white" },
						"2_5": { "type": "ice", "data": "2", "color": "white" },
						"0_7": { "type": "ice", "data": "2", "color": "white" },
						"0_4": { "type": "ice", "data": "2", "color": "white" },
						"8_7": { "type": "ice", "data": "2", "color": "white" },
						"6_2": { "type": "ice", "data": "2", "color": "white" },
						"2_6": { "type": "ice", "data": "2", "color": "white" },
						"1_5": { "type": "ice", "data": "2", "color": "white" },
						"7_0": { "type": "ice", "data": "2", "color": "white" },
						"6_0": { "type": "ice", "data": "2", "color": "white" },
						"2_0": { "type": "ice", "data": "2", "color": "white" },
						"1_0": { "type": "ice", "data": "2", "color": "white" },
						"7_1": { "type": "ice", "data": "2", "color": "white" },
						"4_1": { "type": "ice", "data": "2", "color": "white" },
						"4_2": { "type": "ice", "data": "2", "color": "white" },
						"1_6": { "type": "ice", "data": "2", "color": "white" },
						"7_6": { "type": "ice", "data": "2", "color": "white" },
						"7_4": { "type": "ice", "data": "2", "color": "white" },
						"4_5": { "type": "ice", "data": "2", "color": "white" },
						"2_2": { "type": "ice", "data": "2", "color": "white" },
						"8_6": { "type": "ice", "data": "2", "color": "white" },
						"6_4": { "type": "ice", "data": "2", "color": "white" },
						"6_7": { "type": "ice", "data": "2", "color": "white" },
						"6_1": { "type": "ice", "data": "2", "color": "white" },
						"2_4": { "type": "ice", "data": "2", "color": "white" },
						"1_7": { "type": "ice", "data": "2", "color": "white" }
					},
					"9": { },
					"10": { },
					"11": { },
					"12": { },
					"13": { },
					"15": { },
					"16": { },
					"17": { },
					"18": { }
				},
				"limit": [ { "value": 26, "type": "move" } ],
				"spawners": { },
				"pregame_boosters": [ ],
				"goals": [ { "value": 1, "type": "popsicle", "object_type": "popsicle" } ],
				"bossMaxHealth": 0,
				"mode": "popsicle",
				"episode": 2,
				"boosters": [ "single_block_breaker", "column_breaker", "row_breaker" ],
				"game": 6,
				"data": [ ],
				"recipe_item": ""
			}
		]
	}
}
