{"data":{"level":[{"width":9,"spawn_table":[],"forced_spawn_queue":[],"bossScripts":[],
"numericId":53,"popsiclesToCollect":0,"objects":{"4_4":{"data":{},"type":"invisible_brick"},"5_0":{"data":"2","type":"sugar"},"2_1":{"type":"match_object","data":{},"color":"red"},"2_7":{"data":{},"type":"match_object"},"4_6":{"data":{},"type":"invisible_brick"},"3_1":{"type":"match_object","data":{},"color":"red"},"1_4":{"data":{},"type":"match_object"},"0_0":{"data":"1","type":"sugar"},"2_6":{"data":{},"type":"match_object"},"8_0":{"data":"2","type":"sugar"},"0_7":{"data":{},"type":"match_object"},"8_2":{"data":"2","type":"sugar"},"3_7":{"data":{},"type":"match_object"},"7_0":{"data":"2","type":"sugar"},"7_2":{"data":"1","type":"sugar"},"1_1":{"data":{},"type":"match_object"},"3_3":{"data":{},"type":"match_object"},"7_1":{"data":"2","type":"sugar"},"5_2":{"data":"2","type":"sugar"},"4_5":{"data":{},"type":"invisible_brick"},"4_2":{"data":{},"type":"invisible_brick"},"4_3":{"data":{},"type":"invisible_brick"},"1_0":{"data":"1","type":"sugar"},"0_2":{"data":{},"type":"match_object"},"0_1":{"type":"match_object","data":{},"color":"red"},"6_1":{"data":"2","type":"sugar"},"2_2":{"data":{},"type":"match_object"},"6_0":{"data":"2","type":"sugar"},"3_0":{"data":"1","type":"sugar"},"4_1":{"data":{},"type":"invisible_brick"},"1_7":{"data":{},"type":"match_object"},"8_1":{"data":"2","type":"sugar"},"0_3":{"data":{},"type":"match_object"},"5_1":{"data":"2","type":"sugar"},"0_5":{"data":{},"type":"match_object"},"1_5":{"data":{},"type":"match_object"},"2_5":{"data":{},"type":"match_object"},"0_4":{"data":{},"type":"match_object"},"6_2":{"data":"1","type":"sugar"},"3_2":{"data":{},"type":"match_object"},"3_6":{"data":{},"type":"match_object"},"3_4":{"data":{},"type":"match_object"},"4_0":{"data":{},"type":"invisible_brick"},"2_0":{"data":"1","type":"sugar"},"0_6":{"data":{},"type":"match_object"},"2_3":{"data":{},"type":"match_object"},"1_6":{"data":{},"type":"match_object"},"1_3":{"data":{},"type":"match_object"},"4_7":{"data":{},"type":"invisible_brick"},"3_5":{"data":{},"type":"match_object"},"2_4":{"data":{},"type":"match_object"},"1_2":{"type":"match_object","data":{},"color":"red"}},"scores":[1900,19600,37300],
"title":"Level 53","height":8,"background":"","colors":{"orange":1,"blue":2.5,"purple":1.5,"red":2,"yellow":1.5},"layers":{"0":{},"1":{},"2":{},"3":{},"4":{},"5":{},"6":{},"7":{},"8":{},"9":{},"10":{"3_5":{"type":"cracker","data":"2","color":"white"},"5_0":{"type":"cracker","data":"2","color":"white"},"6_6":{"type":"cracker","data":"2","color":"white"},"2_1":{"type":"cracker","data":"2","color":"white"},"2_7":{"type":"cracker","data":"2","color":"white"},"3_1":{"type":"cracker","data":"2","color":"white"},"6_5":{"type":"cracker","data":"1","color":"white"},"1_4":{"type":"cracker","data":"1","color":"white"},"0_0":{"type":"cracker","data":"1","color":"white"},"8_5":{"type":"cracker","data":"1","color":"white"},"5_3":{"type":"cracker","data":"1","color":"white"},"2_6":{"type":"cracker","data":"1","color":"white"},"8_0":{"type":"cracker","data":"2","color":"white"},"8_3":{"type":"cracker","data":"1","color":"white"},"0_7":{"type":"cracker","data":"2","color":"white"},"8_7":{"type":"cracker","data":"1","color":"white"},"3_7":{"type":"cracker","data":"2","color":"white"},"7_0":{"type":"cracker","data":"2","color":"white"},"8_2":{"type":"cracker","data":"2","color":"white"},"6_0":{"type":"cracker","data":"2","color":"white"},"3_3":{"type":"cracker","data":"2","color":"white"},"7_1":{"type":"cracker","data":"1","color":"white"},"5_2":{"type":"cracker","data":"2","color":"white"},"5_6":{"type":"cracker","data":"2","color":"white"},"7_2":{"type":"cracker","data":"2","color":"white"},"1_0":{"type":"cracker","data":"1","color":"white"},"0_2":{"type":"cracker","data":"1","color":"white"},"5_7":{"type":"cracker","data":"1","color":"white"},"6_1":{"type":"cracker","data":"1","color":"white"},"2_2":{"type":"cracker","data":"1","color":"white"},"8_6":{"type":"cracker","data":"2","color":"white"},"3_0":{"type":"cracker","data":"1","color":"white"},"0_1":{"type":"cracker","data":"2","color":"white"},"1_7":{"type":"cracker","data":"2","color":"white"},"1_1":{"type":"cracker","data":"2","color":"white"},"8_1":{"type":"cracker","data":"1","color":"white"},"7_7":{"type":"cracker","data":"1","color":"white"},"8_4":{"type":"cracker","data":"2","color":"white"},"7_5":{"type":"cracker","data":"1","color":"white"},"0_3":{"type":"cracker","data":"2","color":"white"},"5_1":{"type":"cracker","data":"1","color":"white"},"0_5":{"type":"cracker","data":"2","color":"white"},"6_3":{"type":"cracker","data":"1","color":"white"},"0_6":{"type":"cracker","data":"1","color":"white"},"2_5":{"type":"cracker","data":"2","color":"white"},"0_4":{"type":"cracker","data":"1","color":"white"},"5_5":{"type":"cracker","data":"1","color":"white"},"3_2":{"type":"cracker","data":"1","color":"white"},"1_5":{"type":"cracker","data":"2","color":"white"},"7_3":{"type":"cracker","data":"1","color":"white"},"6_2":{"type":"cracker","data":"2","color":"white"},"3_6":{"type":"cracker","data":"1","color":"white"},"2_3":{"type":"cracker","data":"2","color":"white"},"1_6":{"type":"cracker","data":"1","color":"white"},"7_6":{"type":"cracker","data":"2","color":"white"},"7_4":{"type":"cracker","data":"2","color":"white"},"3_4":{"type":"cracker","data":"1","color":"white"},"1_3":{"type":"cracker","data":"2","color":"white"},"6_4":{"type":"cracker","data":"2","color":"white"},"6_7":{"type":"cracker","data":"1","color":"white"},"2_0":{"type":"cracker","data":"1","color":"white"},"2_4":{"type":"cracker","data":"1","color":"white"},"5_4":{"type":"cracker","data":"2","color":"white"},"1_2":{"type":"cracker","data":"1","color":"white"}},"11":{},"12":{},"13":{},"15":{},"16":{},"17":{},"18":
{"3_7":{"data":{"name":"empty","forced_spawn_queue":[],"spawn_table":[],"colors":{}},"type":"spawner"},
"7_7":{"data":"6","type":"portal_outlet"},"0_0":{"data":"4","type":"portal_inlet"},
"2_7":{"data":{"name":"empty","forced_spawn_queue":[],"spawn_table":[],"colors":{}},"type":"spawner"},
"6_7":{"data":"5","type":"portal_outlet"},"1_0":{"data":"5","type":"portal_inlet"},
"5_7":{"data":"4","type":"portal_outlet"},"2_0":{"data":"6","type":"portal_inlet"},
"3_0":{"data":"7","type":"portal_inlet"},
"0_7":{"data":{"name":"empty","forced_spawn_queue":[],"spawn_table":[],"colors":{}},"type":"spawner"},
"8_7":{"data":"7","type":"portal_outlet"},
"1_7":{"data":{"name":"empty","forced_spawn_queue":[],"spawn_table":[],"colors":{}},"type":"spawner"}}},"limit":[{"value":33,"type":"move"}],"spawners":{},"pregame_boosters":[],"goals":[{"value":1,"type":"break_all","object_type":"cracker"}],"bossMaxHealth":0,"mode":"clear_juice","episode":4,"boosters":["single_block_breaker","row_breaker","column_breaker"],"game":8,"data":[],"recipe_item":""
}]}}