{"data":{"level":[{"width":9,"spawn_table":[{"type":"ice_cube","percent":0.1}],"forced_spawn_queue":[],"bossScripts":[],
"numericId":77,"popsiclesToCollect":20,"objects":{"4_4":{"data":{},"type":"invisible_brick"},"3_5":{"data":{},"type":"match_object"},"5_0":{"data":{},"type":"ice_cube"},"6_6":{"data":{},"type":"ice_cube"},"2_1":{"type":"match_object","data":{},"color":"random3"},"2_7":{"type":"match_object","data":{},"color":"random"},"4_6":{"data":{},"type":"invisible_brick"},"3_1":{"type":"match_object","data":{},"color":"random"},"6_5":{"data":{},"type":"ice_cube"},"1_4":{"data":{},"type":"match_object"},"0_0":{"data":{},"type":"match_object"},"8_5":{"data":{},"type":"ice_cube"},"2_6":{"data":{},"type":"match_object"},"8_0":{"data":{},"type":"ice_cube"},"8_3":{"data":{},"type":"ice_cube"},"0_7":{"data":{},"type":"match_object"},"8_2":{"data":{},"type":"ice_cube"},"3_7":{"data":{},"type":"match_object"},"7_0":{"data":{},"type":"ice_cube"},"7_2":{"data":{},"type":"ice_cube"},"4_3":{"data":{},"type":"invisible_brick"},"3_3":{"data":{},"type":"match_object"},"7_1":{"data":{},"type":"ice_cube"},"5_2":{"data":{},"type":"ice_cube"},"5_6":{"data":{},"type":"ice_cube"},"4_2":{"data":{},"type":"ice_cube"},"6_0":{"data":{},"type":"ice_cube"},"1_0":{"type":"match_object","data":{},"color":"random3"},"0_2":{"data":{},"type":"match_object"},"5_7":{"data":{},"type":"ice_cube"},"4_5":{"data":{},"type":"invisible_brick"},"2_2":{"type":"match_object","data":{},"color":"random"},"8_6":{"data":{},"type":"ice_cube"},"3_0":{"type":"match_object","data":{},"color":"random"},"0_1":{"type":"match_object","data":{},"color":"random3"},"6_1":{"data":{},"type":"ice_cube"},"4_1":{"data":{},"type":"ice_cube"},"1_7":{"data":{},"type":"match_object"},"1_1":{"data":{},"type":"match_object"},"8_7":{"data":{},"type":"ice_cube"},"8_1":{"data":{},"type":"ice_cube"},"7_7":{"data":{},"type":"ice_cube"},"8_4":{"data":{},"type":"ice_cube"},"7_5":{"data":{},"type":"ice_cube"},"0_3":{"data":{},"type":"match_object"},"5_1":{"data":{},"type":"ice_cube"},"0_5":{"data":{},"type":"match_object"},"6_3":{"data":{},"type":"ice_cube"},"1_5":{"data":{},"type":"match_object"},"2_5":{"type":"match_object","data":{},"color":"random"},"0_4":{"data":{},"type":"match_object"},"6_2":{"data":{},"type":"ice_cube"},"3_2":{"type":"match_object","data":{},"color":"random2"},"3_6":{"data":{},"type":"match_object"},"7_3":{"data":{},"type":"ice_cube"},"4_0":{"data":{},"type":"ice_cube"},"5_5":{"data":{},"type":"ice_cube"},"2_0":{"data":{},"type":"match_object"},"3_4":{"data":{},"type":"match_object"},"2_3":{"type":"match_object","data":{},"color":"random2"},"1_6":{"type":"match_object","data":{},"color":"random"},"1_3":{"type":"match_object","data":{},"color":"random2"},"7_4":{"data":{},"type":"ice_cube"},"4_7":{"data":{},"type":"invisible_brick"},"0_6":{"data":{},"type":"match_object"},"7_6":{"data":{},"type":"ice_cube"},"6_4":{"data":{},"type":"ice_cube"},"6_7":{"data":{},"type":"ice_cube"},"5_3":{"data":{},"type":"ice_cube"},"2_4":{"type":"match_object","data":{},"color":"random"},"5_4":{"data":{},"type":"ice_cube"},"1_2":{"data":{},"type":"match_object"}},"scores":[4000,11600,19200],
"title":"Level 77","height":8,"background":"","colors":{"blue":3,"purple":3,"yellow":2.75,"orange":1,"red":3.25,"green":3},"layers":{"0":{},"1":{},"2":{},"3":{},"4":{"1_5":{"data":"set_1x2","type":"popsicle"},"8_3":{"data":"set_1x2","type":"popsicle"},"6_1":{"data":"rnd_1x2","type":"popsicle"},"1_1":{"data":"rnd_1x2","type":"popsicle"},"5_3":{"data":"set_1x2","type":"popsicle"},"2_1":{"data":"rnd_1x2","type":"popsicle"},"7_1":{"data":"rnd_1x2","type":"popsicle"},"7_3":{"data":"set_1x2","type":"popsicle"},"2_3":{"data":"set_1x2","type":"popsicle"},"4_1":{"data":"set_1x2","type":"popsicle"},"7_5":{"data":"set_1x2","type":"popsicle"},"3_3":{"data":"set_1x2","type":"popsicle"},"1_3":{"data":"set_1x2","type":"popsicle"},"0_3":{"data":"set_1x2","type":"popsicle"},"8_5":{"data":"set_1x2","type":"popsicle"},"5_1":{"data":"rnd_1x2","type":"popsicle"},"0_5":{"data":"set_1x2","type":"popsicle"},"6_3":{"data":"set_1x2","type":"popsicle"},"3_5":{"data":"set_1x2","type":"popsicle"},"2_5":{"data":"set_1x2","type":"popsicle"},"6_5":{"data":"set_1x2","type":"popsicle"},"3_1":{"data":"rnd_1x2","type":"popsicle"},"5_5":{"data":"set_1x2","type":"popsicle"}},"5":{},"6":{},"7":{},"8":{"1_3":{"type":"ice","data":"2","color":"white"},"5_0":{"type":"ice","data":"2","color":"white"},"6_6":{"type":"ice","data":"2","color":"white"},"2_1":{"type":"ice","data":"2","color":"white"},"2_7":{"type":"ice","data":"2","color":"white"},"3_1":{"type":"ice","data":"2","color":"white"},"6_5":{"type":"ice","data":"2","color":"white"},"1_4":{"type":"ice","data":"2","color":"white"},"0_0":{"type":"ice","data":"2","color":"white"},"8_5":{"type":"ice","data":"2","color":"white"},"5_3":{"type":"ice","data":"2","color":"white"},"2_6":{"type":"ice","data":"2","color":"white"},"8_0":{"type":"ice","data":"2","color":"white"},"8_3":{"type":"ice","data":"2","color":"white"},"0_7":{"type":"ice","data":"2","color":"white"},"8_7":{"type":"ice","data":"2","color":"white"},"3_7":{"type":"ice","data":"2","color":"white"},"7_0":{"type":"ice","data":"2","color":"white"},"8_2":{"type":"ice","data":"2","color":"white"},"6_0":{"type":"ice","data":"2","color":"white"},"3_3":{"type":"ice","data":"2","color":"white"},"7_1":{"type":"ice","data":"3","color":"white"},"5_2":{"type":"ice","data":"2","color":"white"},"5_6":{"type":"ice","data":"2","color":"white"},"4_2":{"type":"ice","data":"2","color":"white"},"7_2":{"type":"ice","data":"2","color":"white"},"1_0":{"type":"ice","data":"2","color":"white"},"0_2":{"type":"ice","data":"2","color":"white"},"5_7":{"type":"ice","data":"2","color":"white"},"6_1":{"type":"ice","data":"2","color":"white"},"2_2":{"type":"ice","data":"2","color":"white"},"8_6":{"type":"ice","data":"2","color":"white"},"3_0":{"type":"ice","data":"2","color":"white"},"0_1":{"type":"ice","data":"2","color":"white"},"4_1":{"type":"ice","data":"2","color":"white"},"1_7":{"type":"ice","data":"2","color":"white"},"1_1":{"type":"ice","data":"2","color":"white"},"8_1":{"type":"ice","data":"2","color":"white"},"7_7":{"type":"ice","data":"2","color":"white"},"8_4":{"type":"ice","data":"2","color":"white"},"7_5":{"type":"ice","data":"2","color":"white"},"0_3":{"type":"ice","data":"2","color":"white"},"5_1":{"type":"ice","data":"2","color":"white"},"0_5":{"type":"ice","data":"2","color":"white"},"6_3":{"type":"ice","data":"2","color":"white"},"0_6":{"type":"ice","data":"2","color":"white"},"2_5":{"type":"ice","data":"2","color":"white"},"0_4":{"type":"ice","data":"2","color":"white"},"5_5":{"type":"ice","data":"2","color":"white"},"3_2":{"type":"ice","data":"2","color":"white"},"1_5":{"type":"ice","data":"2","color":"white"},"7_3":{"type":"ice","data":"2","color":"white"},"4_0":{"type":"ice","data":"2","color":"white"},"6_2":{"type":"ice","data":"2","color":"white"},"3_6":{"type":"ice","data":"2","color":"white"},"2_3":{"type":"ice","data":"2","color":"white"},"1_6":{"type":"ice","data":"2","color":"white"},"3_5":{"type":"ice","data":"2","color":"white"},"7_4":{"type":"ice","data":"2","color":"white"},"3_4":{"type":"ice","data":"2","color":"white"},"7_6":{"type":"ice","data":"2","color":"white"},"6_4":{"type":"ice","data":"2","color":"white"},"6_7":{"type":"ice","data":"2","color":"white"},"2_0":{"type":"ice","data":"2","color":"white"},"2_4":{"type":"ice","data":"2","color":"white"},"5_4":{"type":"ice","data":"2","color":"white"},"1_2":{"type":"ice","data":"2","color":"white"}},"9":{},"10":{},"11":{},"12":{},"13":{},"15":{},"16":{},"17":{},"18":{}},"limit":[{"value":30,"type":"move"}],"spawners":{},"pregame_boosters":[],"goals":[{"value":1,"type":"popsicle","object_type":"popsicle"}],"bossMaxHealth":0,"mode":"popsicle","episode":5,"boosters":["single_block_breaker","row_breaker","column_breaker"],"game":17,"data":[],"recipe_item":""
}]}}