{"data":{"level":[{"width":9,"spawn_table":[],"forced_spawn_queue":[],"bossScripts":[],
"numericId":199,"popsiclesToCollect":8,"objects":
{"4_4":{"data":{},"type":"match_object","color":"red","modifierType":"ice_cage"},"3_5":{"data":{},"type":"match_object","color":"green","modifierType":"ice_cage"},"5_0":{"data":{},"type":"invisible_brick"},
"6_6":{"data":{},"type":"match_object","color":"green"},"2_1":{"data":{},"type":"match_object","color":"random"},"2_7":{"data":{},"type":"match_object","color":"purple"},
"4_6":{"data":{},"type":"match_object","color":"green"},"3_1":{"data":{},"type":"match_object","color":"blue"},"6_5":{"data":{},"type":"match_object","color":"yellow"},
"1_4":{"data":{},"type":"match_object","color":"red","modifierType":"ice_cage"},"0_0":{"data":{},"type":"yogurt_cup"},
"2_6":{"data":{},"type":"match_object","color":"orange"},"0_7":{"data":{},"type":"match_object","color":"orange"},"3_7":{"data":{},"type":"match_object","color":"green"},
"7_0":{"data":{},"type":"match_object","color":"red"},"7_2":{"data":{},"type":"match_object","color":"orange"},"4_3":{"data":{},"type":"match_object","color":"orange"},
"3_3":{"data":{},"type":"match_object","color":"orange"},"7_1":{"data":{},"type":"match_object","color":"blue"},"5_2":{"data":{},"type":"match_object","color":"green"},
"5_6":{"data":{},"type":"match_object","color":"orange"},"4_2":{"data":{},"type":"match_object","color":"red"},"6_0":{"data":{},"type":"match_object","color":"random"},
"1_0":{"data":{},"type":"match_object","color":"random"},"0_2":{"data":{},"type":"match_object","color":"red"},"5_7":{"data":{},"type":"match_object","color":"orange"},
"4_5":{"data":{},"type":"match_object","color":"random"},"2_2":{"data":{},"type":"match_object","color":"blue"},
"3_0":{"data":{},"type":"match_object","color":"orange"},"0_1":{"data":{},"type":"match_object","color":"blue"},"6_1":{"data":{},"type":"match_object","color":"green"},
"4_1":{"data":{},"type":"match_object","color":"yellow","modifierType":"ice_cage"},"1_7":{"data":{},"type":"match_object","color":"purple"},"1_1":{"data":{},"type":"match_object","color":"orange"},
"7_7":{"data":{},"type":"match_object","color":"blue"},"7_5":{"type":"match_object","data":{},"color":"match_object","color":"purple"},
"0_4":{"data":{},"type":"match_object","color":"green"},"5_1":{"data":{},"type":"match_object","color":"green"},"0_5":{"data":{},"type":"invisible_brick"},
"6_3":{"data":{},"type":"match_object","color":"green"},"1_5":{"data":{},"type":"match_object","color":"random"},
"2_5":{"data":{},"type":"match_object","color":"yellow"},"0_3":{"type":"match_object","data":{},"color":"purple"},
"6_2":{"data":{},"type":"match_object","color":"blue","modifierType":"ice_cage"},"3_2":{"data":{},"type":"match_object","color":"random","modifierType":"ice_cage"},"3_6":{"data":{},"type":"match_object","color":"yellow"},
"7_3":{"data":{},"type":"match_object","color":"yellow"},"4_0":{"data":{},"type":"match_object","color":"blue"},"5_5":{"data":{},"type":"match_object","color":"blue"},
"2_0":{"data":{},"type":"match_object","color":"red"},"3_4":{"type":"match_object","data":{},"color":"green"},
"2_3":{"data":{},"type":"match_object","color":"yellow","modifierType":"ice_cage"},"1_6":{"data":{},"type":"match_object","color":"red"},
"1_3":{"data":{},"type":"match_object","color":"yellow"},"7_4":{"data":{},"type":"match_object","color":"orange"},
"4_7":{"data":{},"type":"match_object","color":"orange"},"0_6":{"data":{},"type":"match_object","color":"yellow"},"7_6":{"data":{},"type":"match_object","color":"orange"},
"6_4":{"type":"match_object","data":{},"color":"purple"},"6_7":{"data":{},"type":"match_object","color":"purple"},
"5_3":{"data":{},"type":"match_object","color":"blue","modifierType":"ice_cage"},"2_4":{"type":"match_object","data":{},"color":"red"},
"5_4":{"type":"match_object","data":{},"color":"purple"},"1_2":{"data":{},"type":"match_object","color":"blue"},
"8_0":{"data":{},"type":"match_object","color":"orange"},"8_1":{"data":{},"type":"match_object","color":"blue"},"8_2":{"data":{},"type":"match_object","color":"red"},
"8_3":{"data":{},"type":"match_object","color":"orange"},"8_4":{"data":{},"type":"match_object","color":"red"},"8_5":{"data":{},"type":"match_object","color":"red"},
"8_6":{"data":{},"type":"match_object","color":"orange"},"8_7":{"data":{},"type":"match_object","color":"blue"}
},
"scores":[1900,5500,9500],"title":"Level 199","height":8,"background":"",
"colors":{"red":1,"orange":1,"green":1,"yellow":1,"blue":1,"purple":1},
"layers":{"0":{},"1":{},"2":{
"0_6":{"data":"right","type":"conveyor_belt"},"1_6":{"data":"down","type":"conveyor_belt"},
"1_5":{"data":"right","type":"conveyor_belt"},"2_5":{"data":"down","type":"conveyor_belt"},
"2_4":{"data":"right","type":"conveyor_belt"},"3_4":{"data":"down","type":"conveyor_belt"},
"3_3":{"data":"right","type":"conveyor_belt"},"4_3":{"data":"down","type":"conveyor_belt"},
"4_2":{"data":"right","type":"conveyor_belt"},"5_2":{"data":"down","type":"conveyor_belt"},
"5_1":{"data":"right","type":"conveyor_belt"},"6_1":{"data":"down","type":"conveyor_belt"},
"6_0":{"data":"right","type":"conveyor_belt"},"7_0":{"data":"down","type":"conveyor_belt"},
},"3":{},"4":{
"3_6":{"data":"set_1x2","type":"popsicle"},"5_6":{"data":"set_2x2","type":"popsicle"},
"6_4":{"data":"set_2x2","type":"popsicle"},"7_2":{"data":"set_1x2","type":"popsicle"},
"2_3":{"data":"set_1x2","type":"popsicle"},"5_4":{"data":"set_1x2","type":"popsicle"},
"3_2":{"data":"set_1x2","type":"popsicle"},"1_4":{"data":"set_1x2","type":"popsicle"}
},"5":{},"6":{},"7":{},"8":{
"0_1":{"type":"ice","data":"3","color":"white"},
"0_2":{"type":"ice","data":"3","color":"white"},"0_3":{"type":"ice","data":"3","color":"white"},
"0_4":{"type":"ice","data":"3","color":"white"},
"0_7":{"type":"ice","data":"3","color":"white"},
"1_0":{"type":"ice","data":"3","color":"white"},"1_1":{"type":"ice","data":"3","color":"white"},
"1_2":{"type":"ice","data":"3","color":"white"},"1_3":{"type":"ice","data":"3","color":"white"},
"1_4":{"type":"ice","data":"3","color":"white"},
"1_7":{"type":"ice","data":"3","color":"white"},
"2_0":{"type":"ice","data":"3","color":"white"},"2_1":{"type":"ice","data":"3","color":"white"},
"2_2":{"type":"ice","data":"3","color":"white"},"2_3":{"type":"ice","data":"3","color":"white"},
"2_6":{"type":"ice","data":"3","color":"white"},"2_7":{"type":"ice","data":"3","color":"white"},
"3_0":{"type":"ice","data":"3","color":"white"},"3_1":{"type":"ice","data":"3","color":"white"},
"3_2":{"type":"ice","data":"3","color":"white"},
"3_5":{"type":"ice","data":"3","color":"white"},
"3_6":{"type":"ice","data":"3","color":"white"},"3_7":{"type":"ice","data":"3","color":"white"},
"4_0":{"type":"ice","data":"3","color":"white"},"4_1":{"type":"ice","data":"3","color":"white"},
"4_4":{"type":"ice","data":"3","color":"white"},"4_5":{"type":"ice","data":"3","color":"white"},
"4_6":{"type":"ice","data":"3","color":"white"},"4_7":{"type":"ice","data":"3","color":"white"},
"5_3":{"type":"ice","data":"3","color":"white"},"5_4":{"type":"ice","data":"3","color":"white"},
"5_5":{"type":"ice","data":"3","color":"white"},
"5_6":{"type":"ice","data":"3","color":"white"},"5_7":{"type":"ice","data":"3","color":"white"},
"6_2":{"type":"ice","data":"3","color":"white"},"6_3":{"type":"ice","data":"3","color":"white"},
"6_4":{"type":"ice","data":"3","color":"white"},"6_5":{"type":"ice","data":"3","color":"white"},
"6_6":{"type":"ice","data":"3","color":"white"},"6_7":{"type":"ice","data":"3","color":"white"},
"7_1":{"type":"ice","data":"3","color":"white"},
"7_2":{"type":"ice","data":"3","color":"white"},"7_3":{"type":"ice","data":"3","color":"white"},
"7_4":{"type":"ice","data":"3","color":"white"},
"7_5":{"type":"ice","data":"3","color":"white"},"7_6":{"type":"ice","data":"3","color":"white"},
"7_7":{"type":"ice","data":"3","color":"white"},
"8_0":{"type":"ice","data":"3","color":"white"},"8_1":{"type":"ice","data":"3","color":"white"},
"8_2":{"type":"ice","data":"3","color":"white"},"8_3":{"type":"ice","data":"3","color":"white"},
"8_4":{"type":"ice","data":"3","color":"white"},
"8_5":{"type":"ice","data":"3","color":"white"},"8_6":{"type":"ice","data":"3","color":"white"},
"8_7":{"type":"ice","data":"3","color":"white"}
},"9":{},"10":{}
,"11":{},"12":{},"13":{},"15":{},"16":{},"17":{},"18":{}},
"limit":[{"value":21,"type":"move"}],
"spawners":{},
"pregame_boosters":[],"goals":[
{"value":1,"type":"popsicle","object_type":"popsicle"}
],
"bossMaxHealth":0,"mode":"popsicle","episode":1,"boosters":[],
"game":2,"data":[{"type":"conveyor_belt","to_column":0,"from_column":7,"to_row":6,"from_row":0}],"recipe_item":""
}]}}