{"data":{"level":[{"width":9,"spawn_table":[],"forced_spawn_queue":[],"bossScripts":[],
"numericId":70,"popsiclesToCollect":7,"objects":{"4_4":{"data":"1","type":"sugar"},"0_2":{"data":{},"type":"invisible_brick"},"7_4":{"data":{},"type":"invisible_brick"},"6_6":{"data":{},"type":"match_object"},"1_7":{"data":{},"type":"match_object"},"7_7":{"data":{},"type":"match_object"},"4_5":{"data":{},"type":"match_object"},"2_7":{"data":{},"type":"match_object"},"4_6":{"type":"match_object","data":{},"color":"random2"},"3_5":{"type":"match_object","data":{},"color":"random2"},"2_6":{"data":{},"type":"match_object"},"7_5":{"data":{},"type":"invisible_brick"},"0_3":{"data":{},"type":"invisible_brick"},"8_5":{"data":{},"type":"invisible_brick"},"0_5":{"data":{},"type":"invisible_brick"},"3_6":{"data":{},"type":"match_object"},"8_3":{"data":{},"type":"invisible_brick"},"0_7":{"data":{},"type":"match_object"},"0_4":{"data":{},"type":"invisible_brick"},"8_7":{"data":{},"type":"match_object"},"5_5":{"type":"match_object","data":{},"color":"random2"},"1_4":{"data":{},"type":"invisible_brick"},"1_5":{"data":{},"type":"invisible_brick"},"3_4":{"data":"6","type":"sugar"},"3_7":{"data":{},"type":"match_object"},"8_2":{"data":{},"type":"invisible_brick"},"7_3":{"data":{},"type":"invisible_brick"},"4_7":{"data":{},"type":"match_object"},"5_6":{"data":{},"type":"match_object"},"1_6":{"data":{},"type":"match_object"},"8_4":{"data":{},"type":"invisible_brick"},"7_6":{"data":{},"type":"match_object"},"5_7":{"data":{},"type":"match_object"},"0_6":{"data":{},"type":"invisible_brick"},"2_5":{"data":{},"type":"match_object"},"8_6":{"data":{},"type":"invisible_brick"},"1_3":{"data":{},"type":"invisible_brick"},"6_4":{"data":{},"type":"invisible_brick"},"6_7":{"data":{},"type":"match_object"},"6_5":{"data":{},"type":"match_object"},"2_4":{"data":{},"type":"invisible_brick"},"5_4":{"data":"6","type":"sugar"}},"scores":[1000,6200,11400],
"title":"Level 70","height":8,"background":"","colors":{"blue":3,"purple":2,"yellow":2,"orange":3,"red":1,"green":1},"layers":{"0":{},"1":{},"2":{"3_0":{"data":"right","type":"conveyor_belt"},"5_0":{"data":"right","type":"conveyor_belt"},"7_0":{"data":"right","type":"conveyor_belt"},"4_0":{"data":"right","type":"conveyor_belt"},"2_0":{"data":"right","type":"conveyor_belt"},"8_0":{"data":"right","type":"conveyor_belt"},"1_0":{"data":"right","type":"conveyor_belt"},"0_0":{"data":"right","type":"conveyor_belt"},"6_0":{"data":"right","type":"conveyor_belt"}},"3":{},"4":{"4_3":{"data":"rnd_2x1","type":"popsicle"},"3_3":{"data":"rnd_1x2","type":"popsicle"},"7_1":{"data":"rnd_2x1","type":"popsicle"},"5_2":{"data":"rnd_1x2","type":"popsicle"},"2_3":{"data":"rnd_1x2","type":"popsicle"},"3_1":{"data":"rnd_1x1","type":"popsicle"},"4_2":{"data":"rnd_1x2","type":"popsicle"},"2_1":{"data":"rnd_1x1","type":"popsicle"},"0_1":{"data":"rnd_2x1","type":"popsicle"},"6_1":{"data":"rnd_1x1","type":"popsicle"},"6_3":{"data":"rnd_1x2","type":"popsicle"},"7_2":{"data":"rnd_1x1","type":"popsicle"},"1_2":{"data":"rnd_1x1","type":"popsicle"}},"5":{},"6":{},"7":{},"8":{"4_4":{"type":"ice","data":"1","color":"white"},"3_4":{"type":"ice","data":"1","color":"white"},"8_1":{"type":"ice","data":"1","color":"white"},"4_3":{"type":"ice","data":"3","color":"white"},"6_2":{"type":"ice","data":"3","color":"white"},"3_2":{"type":"ice","data":"3","color":"white"},"7_1":{"type":"ice","data":"1","color":"white"},"5_2":{"type":"ice","data":"3","color":"white"},"4_1":{"type":"ice","data":"3","color":"white"},"3_1":{"type":"ice","data":"3","color":"white"},"4_2":{"type":"ice","data":"3","color":"white"},"1_1":{"type":"ice","data":"1","color":"white"},"3_3":{"type":"ice","data":"3","color":"white"},"5_3":{"type":"ice","data":"3","color":"white"},"0_1":{"type":"ice","data":"1","color":"white"},"2_3":{"type":"ice","data":"2","color":"white"},"5_1":{"type":"ice","data":"3","color":"white"},"2_2":{"type":"ice","data":"3","color":"white"},"6_3":{"type":"ice","data":"2","color":"white"},"2_1":{"data":"3","type":"ice"},"6_1":{"data":"3","type":"ice"},"7_2":{"type":"ice","data":"1","color":"white"},"5_4":{"type":"ice","data":"1","color":"white"},"1_2":{"type":"ice","data":"1","color":"white"}},"9":{},"10":{},"11":{},"12":{},"13":{},"15":{},"16":{},"17":{},"18":{}},"limit":[{"value":20,"type":"move"}],"spawners":{},"pregame_boosters":[],"goals":[{"value":1,"type":"popsicle","object_type":"popsicle"}],"bossMaxHealth":0,"mode":"popsicle","episode":5,"boosters":["single_block_breaker","row_breaker","column_breaker"],"game":10,"data":[{"type":"conveyor_belt","to_column":0,"from_column":8,"to_row":0,"from_row":0}],"recipe_item":""
}]}}