{"data":{"level":[{"width":8,"spawn_table":[{"type":"bee","percent":0.1},{"type":"muffin","percent":0.1}],"forced_spawn_queue":[],"bossScripts":[],
"numericId":185,"popsiclesToCollect":0,"objects":
{"4_4":{"data":"6","type":"sugar"},"3_5":{"data":"3","type":"muffin"},"5_0":{"data":{},"type":"match_object","color":"green"},
"2_1":{"data":{},"type":"match_object","color":"random"},"2_7":{"data":{},"type":"match_object","color":"random"},"7_4":{"data":{},"type":"match_object","color":"random"},
"4_6":{"data":{},"type":"bee"},"3_1":{"data":{},"type":"bee"},"7_5":{"data":{},"type":"bee"},
"1_4":{"data":{},"type":"match_object","color":"random"},"0_0":{"data":{},"type":"bee"},"7_6":{"data":{},"type":"match_object","color":"green"},
"2_6":{"data":{},"type":"bee"},"7_7":{"data":{},"type":"bee"},
"0_7":{"data":{},"type":"match_object","color":"purple"},"3_7":{"data":{},"type":"bee"},
"7_0":{"data":{},"type":"match_object","color":"green"},"4_3":{"data":"6","type":"sugar"},
"3_3":{"data":"6","type":"sugar"},"7_1":{"data":{},"type":"bee"},"6_6":{"data":{},"type":"bee"},
"4_2":{"data":"3","type":"muffin"},"6_0":{"data":{},"type":"bee"},"6_7":{"data":{},"type":"match_object","color":"purple"},
"1_0":{"data":{},"type":"match_object","color":"green"},"0_2":{"data":{},"type":"bee"},"7_3":{"data":{},"type":"bee"},
"4_5":{"data":"3","type":"muffin"},"2_2":{"data":"3","type":"muffin"},"7_2":{"data":{},"type":"match_object","color":"purple"},
"3_0":{"data":{},"type":"match_object","color":"red"},"0_1":{"data":{},"type":"match_object","color":"red"},"6_1":{"data":{},"type":"match_object","color":"green"},
"4_1":{"data":{},"type":"match_object","color":"random"},"1_7":{"data":{},"type":"bee"},"1_1":{"data":{},"type":"bee"},
"6_2":{"data":{},"type":"bee"},"6_3":{"data":{},"type":"match_object","color":"purple"},"6_5":{"data":{},"type":"match_object","color":"orange"},
"0_3":{"data":{},"type":"match_object","color":"orange"},"5_1":{"data":{},"type":"bee"},"5_2":{"data":"3","type":"muffin"},
"0_5":{"data":{},"type":"match_object","color":"green"},"5_3":{"data":"3","type":"muffin"},"5_5":{"data":"3","type":"muffin"},
"1_5":{"data":{},"type":"match_object","color":"bee"},"5_4":{"data":"3","type":"muffin"},"5_6":{"data":{},"type":"match_object","color":"purple"},
"2_5":{"data":"3","type":"muffin"},"0_4":{"data":{},"type":"bee"},"5_7":{"data":{},"type":"bee"},
"3_2":{"data":"3","type":"muffin"},"3_6":{"data":{},"type":"match_object","color":"random"},"4_0":{"data":{},"type":"bee"},
"2_0":{"data":{},"type":"bee"},"3_4":{"data":"6","type":"sugar"},
"2_3":{"data":"3","type":"muffin"},"1_6":{"data":{},"type":"match_object","color":"random"},
"1_3":{"data":{},"type":"bee"},"6_4":{"data":{},"type":"bee"},
"4_7":{"data":{},"type":"match_object","color":"random"},"0_6":{"data":{},"type":"bee"},
"2_4":{"data":"3","type":"muffin"},"1_2":{"data":{},"type":"match_object","color":"random"}
},
"scores":[3900,7500,15500],"title":"Level 185","height":8,"background":"",
"colors":{"red":1,"orange":1,"purple":1,"blue":1,"green":1},
"layers":{"0":{},"1":{},"2":{
"2_2":{"data":"right","type":"conveyor_belt"},"2_3":{"data":"down","type":"conveyor_belt"},
"2_4":{"data":"down","type":"conveyor_belt"},"2_5":{"data":"down","type":"conveyor_belt"},
"3_5":{"data":"left","type":"conveyor_belt"},"4_5":{"data":"left","type":"conveyor_belt"},
"5_5":{"data":"left","type":"conveyor_belt"},"5_4":{"data":"up","type":"conveyor_belt"},
"5_3":{"data":"up","type":"conveyor_belt"},"5_2":{"data":"up","type":"conveyor_belt"},
"4_2":{"data":"right","type":"conveyor_belt"},"3_2":{"data":"right","type":"conveyor_belt"}
},"3":{},"4":{},"5":{},"6":{},"7":{},"8":{},"9":{},"10":{},"11":{},"12":{
},"13":{},"15":{},"16":{},"17":{},"18":{},"19":{
"2_3":{"type":"","color":"yellow"},"2_4":{"type":"","color":"yellow"},
"2_5":{"type":"","color":"yellow"},"3_5":{"type":"","color":"yellow"},
"4_5":{"type":"","color":"yellow"},
"3_3":{"type":"","color":"blue"},"3_4":{"type":"","color":"blue"},
"4_3":{"type":"","color":"blue"},"4_4":{"type":"","color":"blue"}
}},
"limit":[{"value":29,"type":"move"}],
"spawners":{},
"pregame_boosters":[],"goals":[
{"value":40,"type":"customer","object_type":"muffin"},
{"value":55,"type":"customer","object_type":"match_object","color":"purple"},
{"value":40,"type":"customer","object_type":"honey"}
],
"bossMaxHealth":0,"mode":"order_fulfillment","episode":1,"boosters":[],
"game":2,"data":[],"recipe_item":""
}]}}