{"data":{"level":[{"width":9,"spawn_table":[],"forced_spawn_queue":[],"bossScripts":[],
"numericId":81,"popsiclesToCollect":1,"objects":{"4_4":{"type":"match_object","data":{},"modifierType":"ice_cage"},"3_5":{"type":"match_object","data":{},"modifierType":"ice_cage"},"5_0":{"data":{},"type":"match_object"},"6_6":{"type":"match_object","data":{},"modifierType":"ice_cage","color":"random"},"2_1":{"type":"match_object","data":{},"color":"random2"},"2_7":{"data":{},"type":"match_object"},"4_6":{"type":"match_object","data":{},"modifierType":"ice_cage"},"3_1":{"type":"match_object","data":{},"color":"random2"},"6_5":{"type":"match_object","data":{},"modifierType":"ice_cage","color":"random"},"1_4":{"type":"match_object","data":{},"color":"random3"},"0_0":{"data":{},"type":"empty"},"8_5":{"data":{},"type":"match_object"},"2_6":{"type":"match_object","data":{},"modifierType":"ice_cage"},"8_0":{"data":{},"type":"empty"},"8_3":{"data":{},"type":"match_object"},"0_7":{"data":{},"type":"match_object"},"8_2":{"data":{},"type":"empty"},"3_7":{"data":{},"type":"match_object"},"7_0":{"data":{},"type":"empty"},"7_2":{"data":{},"type":"match_object"},"4_3":{"type":"match_object","data":{},"modifierType":"ice_cage"},"3_3":{"type":"match_object","data":{},"modifierType":"ice_cage"},"7_1":{"data":{},"type":"match_object"},"5_2":{"type":"match_object","data":{},"modifierType":"ice_cage"},"5_6":{"type":"match_object","data":{},"modifierType":"ice_cage"},"4_2":{"type":"match_object","data":{},"modifierType":"ice_cage"},"6_0":{"data":{},"type":"match_object"},"1_0":{"data":{},"type":"empty"},"0_2":{"data":{},"type":"empty"},"5_7":{"data":{},"type":"match_object"},"4_5":{"type":"match_object","data":{},"modifierType":"ice_cage"},"2_2":{"type":"match_object","data":{},"modifierType":"ice_cage"},"8_6":{"data":{},"type":"match_object"},"3_0":{"data":{},"type":"match_object"},"0_1":{"data":{},"type":"empty"},"6_1":{"data":{},"type":"match_object"},"4_1":{"type":"match_object","data":{},"modifierType":"ice_cage"},"1_7":{"data":{},"type":"match_object"},"1_1":{"data":{},"type":"match_object"},"8_7":{"type":"match_object","data":{},"color":"random"},"8_1":{"data":{},"type":"empty"},"7_7":{"type":"match_object","data":{},"color":"random"},"8_4":{"data":{},"type":"match_object"},"7_5":{"data":{},"type":"match_object"},"0_3":{"data":{},"type":"match_object"},"5_1":{"type":"match_object","data":{},"modifierType":"ice_cage"},"0_5":{"type":"match_object","data":{},"color":"random3"},"6_3":{"type":"match_object","data":{},"modifierType":"ice_cage"},"1_5":{"data":{},"type":"match_object"},"2_5":{"type":"match_object","data":{},"modifierType":"ice_cage","color":"random3"},"0_4":{"data":{},"type":"match_object"},"6_2":{"type":"match_object","data":{},"modifierType":"ice_cage"},"3_2":{"type":"match_object","data":{},"modifierType":"ice_cage"},"3_6":{"type":"match_object","data":{},"modifierType":"ice_cage"},"7_3":{"data":{},"type":"match_object"},"4_0":{"data":{},"type":"empty"},"5_5":{"type":"match_object","data":{},"modifierType":"ice_cage"},"2_0":{"data":{},"type":"match_object"},"3_4":{"type":"match_object","data":{},"modifierType":"ice_cage"},"2_3":{"type":"match_object","data":{},"modifierType":"ice_cage"},"1_6":{"data":{},"type":"match_object"},"1_3":{"data":{},"type":"match_object"},"7_4":{"data":{},"type":"match_object"},"4_7":{"data":{},"type":"match_object"},"0_6":{"data":{},"type":"match_object"},"7_6":{"data":{},"type":"match_object"},"6_4":{"type":"match_object","data":{},"modifierType":"ice_cage"},"6_7":{"data":{},"type":"match_object"},"5_3":{"type":"match_object","data":{},"modifierType":"ice_cage"},"2_4":{"type":"match_object","data":{},"modifierType":"ice_cage"},"5_4":{"type":"match_object","data":{},"modifierType":"ice_cage"},"1_2":{"type":"match_object","data":{},"color":"random2"}},"scores":[200,6200,12200],
"title":"Level 81","height":8,"background":"","colors":{"blue":2.5,"purple":3,"yellow":3,"orange":2,"red":3.5,"green":2},"layers":{"0":{},"1":{},"2":{"1_1":{"data":"right","type":"conveyor_belt"},"5_0":{"data":"left","type":"conveyor_belt"},"7_7":{"data":"down","type":"conveyor_belt"},"2_1":{"data":"down","type":"conveyor_belt"},"8_4":{"data":"down","type":"conveyor_belt"},"1_4":{"data":"left","type":"conveyor_belt"},"7_5":{"data":"down","type":"conveyor_belt"},"0_3":{"data":"right","type":"conveyor_belt"},"8_5":{"data":"left","type":"conveyor_belt"},"0_5":{"data":"right","type":"conveyor_belt"},"0_6":{"data":"down","type":"conveyor_belt"},"8_3":{"data":"left","type":"conveyor_belt"},"0_7":{"data":"right","type":"conveyor_belt"},"0_4":{"data":"down","type":"conveyor_belt"},"8_7":{"data":"left","type":"conveyor_belt"},"2_0":{"data":"right","type":"conveyor_belt"},"1_5":{"data":"down","type":"conveyor_belt"},"7_3":{"data":"down","type":"conveyor_belt"},"7_2":{"data":"down","type":"conveyor_belt"},"6_0":{"data":"left","type":"conveyor_belt"},"7_1":{"data":"left","type":"conveyor_belt"},"1_6":{"data":"left","type":"conveyor_belt"},"7_6":{"data":"right","type":"conveyor_belt"},"7_4":{"data":"right","type":"conveyor_belt"},"6_1":{"data":"down","type":"conveyor_belt"},"8_6":{"data":"down","type":"conveyor_belt"},"3_0":{"data":"right","type":"conveyor_belt"},"1_3":{"data":"down","type":"conveyor_belt"},"1_7":{"data":"down","type":"conveyor_belt"},"1_2":{"data":"down","type":"conveyor_belt"}},"3":{},"4":{"2_7":{"data":"set_1x2","type":"popsicle"},"2_3":{"data":"set_1x2","type":"popsicle"},"6_3":{"data":"set_1x2","type":"popsicle"},"3_3":{"data":"set_3x3","type":"popsicle"},"3_6":{"data":"set_3x3","type":"popsicle"},"2_5":{"data":"set_1x2","type":"popsicle"},"6_7":{"data":"set_1x2","type":"popsicle"},"6_5":{"data":"set_1x2","type":"popsicle"}},"5":{},"6":{},"7":{},"8":{"4_4":{"type":"ice","data":"2","color":"white"},"6_6":{"type":"ice","data":"2","color":"white"},"4_1":{"type":"ice","data":"2","color":"white"},"2_7":{"type":"ice","data":"2","color":"white"},"4_6":{"type":"ice","data":"2","color":"white"},"3_1":{"type":"ice","data":"2","color":"white"},"2_6":{"type":"ice","data":"2","color":"white"},"5_1":{"type":"ice","data":"2","color":"white"},"6_2":{"type":"ice","data":"2","color":"white"},"6_3":{"type":"ice","data":"2","color":"white"},"3_6":{"type":"ice","data":"2","color":"white"},"2_5":{"type":"ice","data":"2","color":"white"},"5_5":{"type":"ice","data":"2","color":"white"},"3_2":{"type":"ice","data":"2","color":"white"},"3_4":{"type":"ice","data":"2","color":"white"},"3_7":{"type":"ice","data":"2","color":"white"},"4_3":{"type":"ice","data":"2","color":"white"},"5_3":{"type":"ice","data":"2","color":"white"},"3_3":{"type":"ice","data":"2","color":"white"},"5_2":{"type":"ice","data":"2","color":"white"},"2_3":{"type":"ice","data":"2","color":"white"},"4_5":{"type":"ice","data":"2","color":"white"},"4_2":{"type":"ice","data":"2","color":"white"},"3_5":{"type":"ice","data":"2","color":"white"},"5_7":{"type":"ice","data":"2","color":"white"},"4_7":{"type":"ice","data":"2","color":"white"},"5_6":{"type":"ice","data":"2","color":"white"},"2_2":{"type":"ice","data":"2","color":"white"},"6_4":{"type":"ice","data":"2","color":"white"},"6_7":{"type":"ice","data":"2","color":"white"},"6_5":{"type":"ice","data":"2","color":"white"},"2_4":{"type":"ice","data":"2","color":"white"},"5_4":{"type":"ice","data":"2","color":"white"}},"9":{},"10":{},"11":{},"12":{},"13":{},"15":{},"16":{},"17":{},"18":{}},"limit":[{"value":29,"type":"move"}],"spawners":{},"pregame_boosters":[],"goals":[{"value":1,"type":"popsicle","object_type":"popsicle"}],"bossMaxHealth":0,"mode":"popsicle","episode":6,"boosters":["single_block_breaker","row_breaker","column_breaker"],"game":1,"data":[{"type":"conveyor_belt","to_column":0,"from_column":3,"to_row":7,"from_row":0},{"type":"conveyor_belt","to_column":8,"from_column":5,"to_row":7,"from_row":0}],"recipe_item":""
}]}}