{
	"data": {
		"level": [
			{
				"width": 9,
				"spawn_table": [ ],
				"forced_spawn_queue": [ ],
				"bossScripts": [ ],
				"numericId": 24,
				"popsiclesToCollect": 0,
				"objects": {
					"4_4": { "type": "cow", "data": "10000" },
					"3_5": { "type": "sugar", "data": "2" },
					"5_0": { "type": "invisible_brick", "data": { } },
					"6_6": { "type": "sugar", "data": "2" },
					"2_1": { "type": "sugar", "data": "1" },
					"2_7": { "type": "sugar", "data": "1" },
					"4_6": { "type": "invisible_brick", "data": { } },
					"3_1": { "type": "cow", "data": "10000" },
					"6_5": { "type": "sugar", "data": "1" },
					"1_4": { "type": "match_object", "data": { }, "color": "random" },
					"0_0": { "data": { }, "type": "match_object", "color": "red" },
					"8_5": { "type": "match_object", "data": { } },
					"2_6": { "type": "sugar", "data": "2" },
					"8_0": { "type": "match_object", "data": { } },
					"8_3": { "type": "invisible_brick", "data": { } },
					"0_7": { "data": { }, "type": "empty" },
					"8_2": { "type": "match_object", "data": { } },
					"3_7": { "type": "invisible_brick", "data": { } },
					"7_0": { "type": "match_object", "data": { }, "color": "random" },
					"7_2": { "type": "match_object", "data": { }, "color": "random" },
					"4_3": { "type": "cow", "data": "10000" },
					"3_3": { "type": "sugar", "data": "2" },
					"7_1": { "type": "match_object", "data": { } },
					"5_2": { "type": "sugar", "data": "1" },
					"5_6": { "type": "cow", "data": "10000" },
					"4_2": { "type": "cow", "data": "10000" },
					"6_0": { "type": "sugar", "data": "2" },
					"1_0": { "type": "match_object", "data": { }, "color": "random2" },
					"0_2": { "type": "match_object", "data": { } },
					"5_7": { "type": "invisible_brick", "data": { } },
					"4_5": { "type": "cow", "data": "10000" },
					"2_2": { "type": "sugar", "data": "2" },
					"8_6": { "type": "match_object", "data": { }, "color": "random3" },
					"3_0": { "data": { }, "type": "empty" },
					"0_1": { "type": "match_object", "data": { }, "color": "random2" },
					"6_1": { "type": "sugar", "data": "1" },
					"4_1": { "type": "invisible_brick", "data": { } },
					"1_7": { "type": "match_object", "data": { } },
					"1_1": { "type": "match_object", "data": { } },
					"8_7": { "type": "match_object", "data": { } },
					"8_1": { "type": "match_object", "data": { }, "color": "random" },
					"7_7": { "type": "match_object", "data": { }, "color": "random3" },
					"8_4": { "type": "invisible_brick", "data": { } },
					"7_5": { "type": "match_object", "data": { }, "color": "random3" },
					"0_3": { "type": "invisible_brick", "data": { } },
					"5_1": { "type": "cow", "data": "10000" },
					"0_5": { "type": "match_object", "data": { }, "color": "random" },
					"6_3": { "type": "match_object", "data": { } },
					"1_5": { "type": "match_object", "data": { } },
					"2_5": { "type": "sugar", "data": "1" },
					"0_4": { "type": "invisible_brick", "data": { } },
					"6_2": { "type": "sugar", "data": "2" },
					"3_2": { "type": "sugar", "data": "1" },
					"3_6": { "type": "cow", "data": "10000" },
					"7_3": { "type": "match_object", "data": { } },
					"4_0": { "type": "invisible_brick", "data": { } },
					"5_5": { "type": "sugar", "data": "2" },
					"2_0": { "type": "sugar", "data": "2" },
					"3_4": { "type": "sugar", "data": "1" },
					"2_3": { "type": "match_object", "data": { } },
					"1_6": { "type": "match_object", "data": { }, "color": "random" },
					"1_3": { "type": "match_object", "data": { } },
					"7_4": { "type": "match_object", "data": { } },
					"4_7": { "type": "invisible_brick", "data": { } },
					"0_6": { "type": "match_object", "data": { } },
					"7_6": { "type": "match_object", "data": { } },
					"6_4": { "type": "match_object", "data": { } },
					"6_7": { "type": "sugar", "data": "1" },
					"5_3": { "type": "sugar", "data": "2" },
					"2_4": { "type": "match_object", "data": { } },
					"5_4": { "type": "sugar", "data": "1" },
					"1_2": { "type": "match_object", "data": { }, "color": "random2" }
				},
				"scores": [ 4600, 9100, 13500 ],
				"title": "Level 24",
				"height": 8,
				"background": "",
				"colors": { "orange": 3, "blue": 3, "purple": 2.5, "red": 3, "yellow": 3 },
				"layers": {
					"0": { },
					"1": { },
					"2": {
						"3_2": { "type": "conveyor_belt", "data": "left" },
						"3_4": { "type": "conveyor_belt", "data": "down" },
						"6_6": { "type": "conveyor_belt", "data": "up" },
						"5_5": { "type": "conveyor_belt", "data": "right" },
						"2_0": { "type": "conveyor_belt", "data": "down" },
						"3_3": { "type": "conveyor_belt", "data": "down" },
						"2_7": { "type": "conveyor_belt", "data": "down" },
						"5_2": { "type": "conveyor_belt", "data": "up" },
						"2_6": { "type": "conveyor_belt", "data": "down" },
						"5_4": { "type": "conveyor_belt", "data": "up" },
						"2_1": { "type": "conveyor_belt", "data": "down" },
						"5_3": { "type": "conveyor_belt", "data": "up" },
						"6_1": { "type": "conveyor_belt", "data": "up" },
						"2_2": { "type": "conveyor_belt", "data": "down" },
						"6_0": { "type": "conveyor_belt", "data": "up" },
						"3_5": { "type": "conveyor_belt", "data": "down" },
						"2_5": { "type": "conveyor_belt", "data": "right" },
						"6_7": { "type": "conveyor_belt", "data": "up" },
						"6_5": { "type": "conveyor_belt", "data": "up" },
						"6_2": { "type": "conveyor_belt", "data": "left" }
					},
					"3": { },
					"4": { },
					"5": { },
					"6": { },
					"7": { },
					"8": { },
					"9": { },
					"10": { },
					"11": { },
					"12": { },
					"13": { },
					"15": { },
					"16": { },
					"18": { }
				},
				"limit": [ { "value": 30, "type": "move" } ],
				"spawners": { },
				"pregame_boosters": [ ],
				"goals": [
					{
						"value": 8,
						"type": "customer",
						"object_type": "match_object",
						"color": "red"
					},
					{ "value": 8, "type": "customer", "object_type": "cow" },
					{ "value": 8, "type": "customer", "object_type": "match_object", "color": "blue" },
					{ "value": 8, "type": "customer", "object_type": "cow" },
					{ "value": 8, "type": "customer", "object_type": "match_object", "color": "red" },
					{ "value": 8, "type": "customer", "object_type": "cow" },
					{ "value": 8, "type": "customer", "object_type": "match_object", "color": "blue" },
					{ "value": 8, "type": "customer", "object_type": "cow" },
					{ "value": 8, "type": "customer", "object_type": "match_object", "color": "red" },
					{ "value": 8, "type": "customer", "object_type": "cow" },
					{ "value": 8, "type": "customer", "object_type": "match_object", "color": "blue" },
					{ "value": 8, "type": "customer", "object_type": "cow" },
					{ "value": 8, "type": "customer", "object_type": "match_object", "color": "red" },
					{ "value": 8, "type": "customer", "object_type": "cow" },
					{ "value": 8, "type": "customer", "object_type": "match_object", "color": "blue" },
					{ "value": 8, "type": "customer", "object_type": "cow" }
				],
				"bossMaxHealth": 0,
				"mode": "order_fulfillment",
				"episode": 2,
				"boosters": [ "single_block_breaker", "row_breaker", "column_breaker" ],
				"game": 9,
				"data": [ { "type": "conveyor_belt", "to_column": 6, "from_column": 2, "to_row": 0, "from_row": 0 }, { "type": "conveyor_belt", "to_column": 2, "from_column": 6, "to_row": 7, "from_row": 7 } ],
				"recipe_item": ""
			}
		]
	}
}
