{"data":{"level":[{"width":9,"spawn_table":[],"forced_spawn_queue":[],"bossScripts":[{"quantity":4,"data":0,"object_type":"sugar","delay":10,"type":"recurring_script","spawn_time":6,"color":"any"}],
"numericId":45,"popsiclesToCollect":0,"objects":{"4_4":{"type":"match_object","data":{}},"3_5":{"type":"match_object","data":{}},"5_0":{"type":"cow","data":"10000"},"6_6":{"type":"empty","data":{}},"2_1":{"type":"empty","data":{}},"2_7":{"type":"cow","data":"10000"},"4_6":{"type":"empty","data":{}},"3_1":{"type":"empty","data":{}},"6_5":{"type":"match_object","data":{}},"1_4":{"type":"match_object","data":{}},"0_0":{"type":"sugar","data":"3"},"8_5":{"type":"sugar","data":"3"},"2_6":{"type":"empty","data":{}},"8_0":{"type":"sugar","data":"4"},"8_3":{"type":"sugar","data":"3"},"0_7":{"type":"sugar","data":"4"},"8_2":{"type":"sugar","data":"4"},"3_7":{"type":"cow","data":"10000"},"7_0":{"type":"cow","data":"10000"},"7_2":{"type":"match_object","data":{},"color":"red"},"4_3":{"type":"match_object","data":{}},"3_3":{"type":"match_object","data":{}},"7_1":{"type":"empty","data":{}},"5_2":{"type":"match_object","data":{}},"5_6":{"type":"empty","data":{}},"4_2":{"type":"match_object","data":{}},"6_0":{"type":"cow","data":"10000"},"1_0":{"type":"cow","data":"10000"},"0_2":{"type":"sugar","data":"3"},"5_7":{"type":"cow","data":"10000"},"4_5":{"type":"match_object","data":{}},"2_2":{"type":"match_object","data":{}},"8_6":{"type":"sugar","data":"4"},"3_0":{"type":"cow","data":"10000"},"0_1":{"type":"sugar","data":"4"},"6_1":{"type":"empty","data":{}},"4_1":{"type":"empty","data":{}},"1_7":{"type":"cow","data":"10000"},"1_1":{"type":"empty","data":{}},"8_7":{"type":"sugar","data":"3"},"8_1":{"type":"sugar","data":"3"},"7_7":{"type":"cow","data":"10000"},"8_4":{"type":"sugar","data":"4"},"7_5":{"type":"match_object","data":{},"color":"random2"},"0_3":{"type":"sugar","data":"4"},"5_1":{"type":"empty","data":{}},"0_5":{"type":"sugar","data":"4"},"6_3":{"type":"match_object","data":{},"color":"random2"},"1_5":{"type":"match_object","data":{},"color":"red"},"2_5":{"type":"match_object","data":{},"color":"red"},"0_4":{"type":"sugar","data":"3"},"6_2":{"type":"match_object","data":{}},"3_2":{"type":"match_object","data":{}},"3_6":{"type":"empty","data":{}},"7_3":{"type":"match_object","data":{}},"4_0":{"type":"cow","data":"10000"},"5_5":{"type":"match_object","data":{}},"2_0":{"type":"cow","data":"10000"},"3_4":{"type":"match_object","data":{},"color":"red"},"2_3":{"type":"match_object","data":{}},"1_6":{"type":"empty","data":{}},"1_3":{"type":"match_object","data":{},"color":"random"},"7_4":{"type":"match_object","data":{},"color":"random2"},"4_7":{"type":"cow","data":"10000"},"0_6":{"type":"sugar","data":"3"},"7_6":{"type":"empty","data":{}},"6_4":{"type":"match_object","data":{}},"6_7":{"type":"cow","data":"10000"},"5_3":{"type":"match_object","data":{}},"2_4":{"type":"match_object","data":{},"color":"random"},"5_4":{"type":"match_object","data":{}},"1_2":{"type":"match_object","data":{},"color":"random"}},"scores":[1600,9200,16800],
"title":"Level 45","height":8,"background":"","colors":{"orange":4,"purple":4,"red":3,"green":4},"layers":{"0":{},"1":{},"2":{"5_0":{"type":"conveyor_belt","data":"left"},"8_1":{"type":"conveyor_belt","data":"down"},"7_7":{"type":"conveyor_belt","data":"right"},"0_0":{"type":"conveyor_belt","data":"up"},"2_7":{"type":"conveyor_belt","data":"right"},"8_4":{"type":"conveyor_belt","data":"down"},"0_3":{"type":"conveyor_belt","data":"up"},"8_5":{"type":"conveyor_belt","data":"down"},"0_5":{"type":"conveyor_belt","data":"up"},"8_0":{"type":"conveyor_belt","data":"left"},"0_6":{"type":"conveyor_belt","data":"up"},"8_3":{"type":"conveyor_belt","data":"down"},"0_7":{"type":"conveyor_belt","data":"right"},"0_4":{"type":"conveyor_belt","data":"up"},"8_7":{"type":"conveyor_belt","data":"down"},"2_0":{"type":"conveyor_belt","data":"left"},"3_7":{"type":"conveyor_belt","data":"right"},"7_0":{"type":"conveyor_belt","data":"left"},"4_0":{"type":"conveyor_belt","data":"left"},"6_0":{"type":"conveyor_belt","data":"left"},"1_0":{"type":"conveyor_belt","data":"left"},"4_7":{"type":"conveyor_belt","data":"right"},"8_2":{"type":"conveyor_belt","data":"down"},"0_2":{"type":"conveyor_belt","data":"up"},"0_1":{"type":"conveyor_belt","data":"up"},"8_6":{"type":"conveyor_belt","data":"down"},"3_0":{"type":"conveyor_belt","data":"left"},"5_7":{"type":"conveyor_belt","data":"right"},"6_7":{"type":"conveyor_belt","data":"right"},"1_7":{"type":"conveyor_belt","data":"right"}},"3":{},"4":{},"5":{},"6":{},"7":{},"8":{},"9":{},"10":{},"11":{},"12":{},"13":{},"15":{},"16":{"4_4":{"type":"obstacle_blocker","data":{}},"3_5":{"type":"obstacle_blocker","data":{}},"5_0":{"type":"obstacle_blocker","data":{}},"0_0":{"type":"obstacle_blocker","data":{}},"2_7":{"type":"obstacle_blocker","data":{}},"8_5":{"type":"obstacle_blocker","data":{}},"8_0":{"type":"obstacle_blocker","data":{}},"8_3":{"type":"obstacle_blocker","data":{}},"0_7":{"type":"obstacle_blocker","data":{}},"8_7":{"type":"obstacle_blocker","data":{}},"3_7":{"type":"obstacle_blocker","data":{}},"7_0":{"type":"obstacle_blocker","data":{}},"7_2":{"type":"obstacle_blocker","data":{}},"4_3":{"type":"obstacle_blocker","data":{}},"3_3":{"type":"obstacle_blocker","data":{}},"5_2":{"type":"obstacle_blocker","data":{}},"4_5":{"type":"obstacle_blocker","data":{}},"4_2":{"type":"obstacle_blocker","data":{}},"8_2":{"type":"obstacle_blocker","data":{}},"1_0":{"type":"obstacle_blocker","data":{}},"0_2":{"type":"obstacle_blocker","data":{}},"5_7":{"type":"obstacle_blocker","data":{}},"2_2":{"type":"obstacle_blocker","data":{}},"6_0":{"type":"obstacle_blocker","data":{}},"3_0":{"type":"obstacle_blocker","data":{}},"0_1":{"type":"obstacle_blocker","data":{}},"1_7":{"type":"obstacle_blocker","data":{}},"8_6":{"type":"obstacle_blocker","data":{}},"8_1":{"type":"obstacle_blocker","data":{}},"7_7":{"type":"obstacle_blocker","data":{}},"8_4":{"type":"obstacle_blocker","data":{}},"0_3":{"type":"obstacle_blocker","data":{}},"5_3":{"type":"obstacle_blocker","data":{}},"6_3":{"type":"obstacle_blocker","data":{}},"1_5":{"type":"obstacle_blocker","data":{}},"2_5":{"type":"obstacle_blocker","data":{}},"0_4":{"type":"obstacle_blocker","data":{}},"2_0":{"type":"obstacle_blocker","data":{}},"3_2":{"type":"obstacle_blocker","data":{}},"0_6":{"type":"obstacle_blocker","data":{}},"3_4":{"type":"obstacle_blocker","data":{}},"4_0":{"type":"obstacle_blocker","data":{}},"5_5":{"type":"obstacle_blocker","data":{}},"0_5":{"type":"obstacle_blocker","data":{}},"2_3":{"type":"obstacle_blocker","data":{}},"6_2":{"type":"obstacle_blocker","data":{}},"7_4":{"type":"obstacle_blocker","data":{}},"4_7":{"type":"obstacle_blocker","data":{}},"1_3":{"type":"obstacle_blocker","data":{}},"6_4":{"type":"obstacle_blocker","data":{}},"6_7":{"type":"obstacle_blocker","data":{}},"6_5":{"type":"obstacle_blocker","data":{}},"2_4":{"type":"obstacle_blocker","data":{}},"5_4":{"type":"obstacle_blocker","data":{}}},"17":{},"18":{"3_7":{"type":"spawner","data":{"name":"empty","forced_spawn_queue":[],"spawn_table":[],"colors":{}}},"1_7":{"type":"spawner","data":{"name":"empty","forced_spawn_queue":[],"spawn_table":[],"colors":{}}},"7_7":{"type":"spawner","data":{"name":"empty","forced_spawn_queue":[],"spawn_table":[],"colors":{}}},"2_7":{"type":"spawner","data":{"name":"empty","forced_spawn_queue":[],"spawn_table":[],"colors":{}}},"4_7":{"type":"spawner","data":{"name":"empty","forced_spawn_queue":[],"spawn_table":[],"colors":{}}},"0_7":{"type":"spawner","data":{"name":"empty","forced_spawn_queue":[],"spawn_table":[],"colors":{}}},"7_5":{"type":"spawner","data":{"name":"empty","forced_spawn_queue":[],"spawn_table":[],"colors":{}}},"3_5":{"type":"spawner","data":{"name":"empty","forced_spawn_queue":[],"spawn_table":[],"colors":{}}},"5_7":{"type":"spawner","data":{"name":"empty","forced_spawn_queue":[],"spawn_table":[],"colors":{}}},"4_5":{"type":"spawner","data":{"name":"empty","forced_spawn_queue":[],"spawn_table":[],"colors":{}}},"1_5":{"type":"spawner","data":{"name":"empty","forced_spawn_queue":[],"spawn_table":[],"colors":{}}},"2_5":{"type":"spawner","data":{"name":"empty","forced_spawn_queue":[],"spawn_table":[],"colors":{}}},"6_7":{"type":"spawner","data":{"name":"empty","forced_spawn_queue":[],"spawn_table":[],"colors":{}}},"6_5":{"type":"spawner","data":{"name":"empty","forced_spawn_queue":[],"spawn_table":[],"colors":{}}},"8_7":{"type":"spawner","data":{"name":"empty","forced_spawn_queue":[],"spawn_table":[],"colors":{}}},"5_5":{"type":"spawner","data":{"name":"empty","forced_spawn_queue":[],"spawn_table":[],"colors":{}}}}},"limit":[{"value":28,"type":"move"}],"spawners":{},"pregame_boosters":[],"goals":[{"value":1,"type":"break","object_type":"match_object","color":"red"},{"value":2,"type":"break","object_type":"cow"}],"bossMaxHealth":170,"mode":"boss_battle","episode":3,"boosters":["single_block_breaker","row_breaker","column_breaker"],"game":15,"data":[],"recipe_item":""
}]}}