{
	"data": {
		"level": [
			{
				"width": 9,
				"spawn_table": [ ],
				"forced_spawn_queue": [
					{
						"type": "match_object",
						"color": "orange"
					},
					{ "type": "match_object", "color": "red" },
					{ "type": "match_object", "color": "orange" },
					{ "type": "match_object", "color": "red" },
					{ "type": "match_object", "color": "orange" },
					{ "type": "match_object", "color": "red" },
					{ "type": "match_object", "color": "orange" },
					{ "type": "match_object", "color": "red" },
					{ "type": "match_object", "color": "orange" },
					{ "type": "match_object", "color": "red" },
					{ "type": "match_object", "color": "orange" }
				],
				"bossScripts": [ ],
				"numericId": 8,
				"popsiclesToCollect": 5,
				"objects": {
					"4_4": { "data": "2", "type": "sugar" },
					"3_5": { "type": "sugar", "data": "3" },
					"5_0": { "type": "match_object", "data": { }, "color": "red" },
					"6_6": { "data": "1", "type": "sugar" },
					"2_1": { "type": "match_object", "data": { }, "color": "green" },
					"2_7": { "type": "match_object", "data": { }, "color": "blue" },
					"4_6": { "type": "match_object", "data": { }, "color": "red" },
					"3_1": { "type": "match_object", "data": { }, "color": "yellow" },
					"6_5": { "type": "match_object", "data": { }, "color": "red" },
					"1_4": { "data": { }, "type": "match_object" },
					"0_0": { "type": "empty", "data": { }, "color": "yellow" },
					"8_5": { "type": "match_object", "data": { }, "color": "purple" },
					"2_6": { "data": "1", "type": "sugar" },
					"8_0": { "type": "empty", "data": { }, "color": "yellow" },
					"8_3": { "data": { }, "type": "empty" },
					"0_7": { "type": "empty", "data": { } },
					"8_2": { "type": "match_object", "data": { }, "color": "yellow" },
					"3_7": { "data": { }, "type": "empty" },
					"7_0": { "type": "match_object", "data": { }, "color": "orange" },
					"7_2": { "type": "match_object", "data": { }, "color": "blue" },
					"4_3": { "data": "1", "type": "sugar" },
					"3_3": { "data": "1", "type": "sugar" },
					"7_1": { "type": "match_object", "data": { }, "color": "yellow" },
					"5_2": { "type": "match_object", "data": { }, "color": "purple" },
					"5_6": { "data": "1", "type": "sugar" },
					"4_2": { "type": "match_object", "data": { }, "color": "yellow" },
					"6_0": { "type": "match_object", "data": { }, "color": "yellow" },
					"1_0": { "type": "match_object", "data": { }, "color": "orange" },
					"0_2": { "type": "match_object", "data": { }, "color": "yellow" },
					"5_7": { "data": { }, "type": "empty" },
					"4_5": { "type": "match_object", "data": { }, "color": "yellow" },
					"2_2": { "type": "match_object", "data": { }, "color": "yellow" },
					"8_6": { "type": "match_object", "data": { }, "color": "green" },
					"3_0": { "type": "match_object", "data": { }, "color": "red" },
					"0_1": { "type": "match_object", "data": { }, "color": "purple" },
					"6_1": { "type": "match_object", "data": { }, "color": "green" },
					"4_1": { "type": "match_object", "data": { }, "color": "blue" },
					"1_7": { "type": "match_object", "data": { }, "color": "orange" },
					"1_1": { "type": "match_object", "data": { }, "color": "yellow" },
					"8_7": { "type": "empty", "data": { }, "color": "blue" },
					"8_1": { "type": "match_object", "data": { }, "color": "purple" },
					"7_7": { "type": "match_object", "data": { }, "color": "orange" },
					"8_4": { "data": { }, "type": "empty" },
					"7_5": { "type": "match_object", "data": { }, "color": "green" },
					"0_3": { "data": { }, "type": "empty" },
					"5_1": { "type": "match_object", "data": { }, "color": "yellow" },
					"0_5": { "type": "sugar", "data": "6" },
					"6_3": { "data": "1", "type": "sugar" },
					"1_5": { "type": "match_object", "data": { }, "color": "green" },
					"2_5": { "type": "match_object", "data": { }, "color": "red" },
					"0_4": { "data": { }, "type": "empty" },
					"6_2": { "type": "match_object", "data": { }, "color": "yellow" },
					"3_2": { "type": "match_object", "data": { }, "color": "purple" },
					"3_6": { "data": "1", "type": "sugar" },
					"7_3": { "type": "match_object", "data": { }, "color": "yellow" },
					"4_0": { "type": "match_object", "data": { }, "color": "yellow" },
					"5_5": { "type": "match_object", "data": { }, "color": "red" },
					"2_0": { "type": "match_object", "data": { }, "color": "yellow" },
					"3_4": { "data": "1", "type": "sugar" },
					"2_3": { "data": "1", "type": "sugar" },
					"1_6": { "type": "match_object", "data": { }, "color": "purple" },
					"1_3": { "data": { }, "type": "empty" },
					"7_4": { "data": { }, "type": "empty" },
					"4_7": { "data": { }, "type": "empty" },
					"0_6": { "type": "empty", "data": { } },
					"7_6": { "type": "match_object", "data": { }, "color": "purple" },
					"6_4": { "data": "1", "type": "sugar" },
					"6_7": { "type": "match_object", "data": { }, "color": "blue" },
					"5_3": { "data": "1", "type": "sugar" },
					"2_4": { "data": "1", "type": "sugar" },
					"5_4": { "data": "1", "type": "sugar" },
					"1_2": { "type": "match_object", "data": { }, "color": "blue" }
				},
				"scores": [ 1800, 3500, 5000 ],
				"title": "Level 1",
				"height": 8,
				"background": "",
				"colors": { "blue": 3, "purple": 3, "yellow": 2, "orange": 3, "red": 3.5, "green": 3 },
				"layers": {
					"0": { },
					"1": { },
					"2": { },
					"3": { },
					"4": {
						"3_5": { "data": "set_3x3", "type": "popsicle" },
						"5_2": { "data": "set_2x2", "type": "popsicle" },
						"6_6": { "data": "set_1x2", "type": "popsicle" },
						"2_2": { "data": "set_2x2", "type": "popsicle" },
						"2_6": { "data": "set_1x2", "type": "popsicle" }
					},
					"5": { },
					"6": { },
					"7": { },
					"8": {
						"4_4": { "type": "ice", "data": "1", "color": "white" },
						"7_6": { "type": "ice", "data": "1", "color": "white" },
						"5_0": { "type": "ice", "data": "1", "color": "white" },
						"6_6": { "type": "ice", "data": "1", "color": "white" },
						"2_1": { "type": "ice", "data": "1", "color": "white" },
						"3_1": { "type": "ice", "data": "1", "color": "white" },
						"2_6": { "type": "ice", "data": "1", "color": "white" },
						"8_5": { "type": "ice", "data": "1", "color": "white" },
						"0_5": { "type": "ice", "data": "1", "color": "white" },
						"0_7": { "type": "ice", "data": "1", "color": "white" },
						"8_2": { "type": "ice", "data": "1", "color": "white" },
						"7_0": { "type": "ice", "data": "1", "color": "white" },
						"1_1": { "type": "ice", "data": "1", "color": "white" },
						"3_3": { "type": "ice", "data": "1", "color": "white" },
						"7_1": { "type": "ice", "data": "1", "color": "white" },
						"5_2": { "type": "ice", "data": "1", "color": "white" },
						"4_5": { "type": "ice", "data": "1", "color": "white" },
						"4_3": { "type": "ice", "data": "1", "color": "white" },
						"1_0": { "type": "ice", "data": "1", "color": "white" },
						"0_2": { "type": "ice", "data": "1", "color": "white" },
						"5_6": { "type": "ice", "data": "1", "color": "white" },
						"2_2": { "type": "ice", "data": "1", "color": "white" },
						"6_0": { "type": "ice", "data": "1", "color": "white" },
						"3_0": { "type": "ice", "data": "1", "color": "white" },
						"6_1": { "type": "ice", "data": "1", "color": "white" },
						"1_7": { "type": "ice", "data": "1", "color": "white" },
						"8_6": { "type": "ice", "data": "1", "color": "white" },
						"7_7": { "type": "ice", "data": "1", "color": "white" },
						"7_5": { "type": "ice", "data": "1", "color": "white" },
						"5_1": { "type": "ice", "data": "1", "color": "white" },
						"2_0": { "type": "ice", "data": "1", "color": "white" },
						"6_3": { "type": "ice", "data": "1", "color": "white" },
						"0_6": { "type": "ice", "data": "1", "color": "white" },
						"2_5": { "type": "ice", "data": "3", "color": "white" },
						"4_1": { "type": "ice", "data": "3", "color": "white" }
					},
					"9": { },
					"10": { },
					"11": { },
					"12": { },
					"13": { },
					"15": { },
					"16": { },
					"17": { },
					"18": {
						"2_7": { "data": { "name": "empty", "forced_spawn_queue": [ ], "spawn_table": [ ], "colors": { } }, "type": "spawner" },
						"0_7": { "data": { "name": "empty", "forced_spawn_queue": [ ], "spawn_table": [ ], "colors": { } }, "type": "spawner" },
						"7_7": { "data": { "name": "empty", "forced_spawn_queue": [ ], "spawn_table": [ ], "colors": { } }, "type": "spawner" },
						"3_6": { "data": { "name": "empty", "forced_spawn_queue": [ ], "spawn_table": [ ], "colors": { } }, "type": "spawner" },
						"4_6": { "data": { "name": "empty", "forced_spawn_queue": [ ], "spawn_table": [ ], "colors": { } }, "type": "spawner" },
						"6_7": { "data": { "name": "empty", "forced_spawn_queue": [ ], "spawn_table": [ ], "colors": { } }, "type": "spawner" },
						"5_6": { "data": { "name": "empty", "forced_spawn_queue": [ ], "spawn_table": [ ], "colors": { } }, "type": "spawner" },
						"8_7": { "data": { "name": "empty", "forced_spawn_queue": [ ], "spawn_table": [ ], "colors": { } }, "type": "spawner" },
						"1_7": { "data": { "name": "empty", "forced_spawn_queue": [ ], "spawn_table": [ ], "colors": { } }, "type": "spawner" }
					}
				},
				"limit": [ { "value": 28, "type": "move" } ],
				"spawners": { },
				"pregame_boosters": [ ],
				"goals": [ { "value": 1, "type": "popsicle", "object_type": "popsicle" } ],
				"bossMaxHealth": 0,
				"mode": "popsicle",
				"episode": 1,
				"boosters": [ "single_block_breaker" ],
				"game": 8,
				"data": [ ],
				"recipe_item": ""
			}
		]
	}
}
