{"data":{"level":[{"width":7,"spawn_table":[],"forced_spawn_queue":[],"bossScripts":[{"quantity":2,"data":2,"object_type":"sugar","color":"any","type":"recurring_script","spawn_time":12,"delay":0}],
"numericId":75,"popsiclesToCollect":0,"objects":{"4_4":{"type":"match_object","data":{},"color":"random"},"5_0":{"data":{},"type":"match_object"},"6_6":{"data":{},"type":"match_object"},"2_1":{"data":{},"type":"match_object"},"2_7":{"data":{},"type":"invisible_brick"},"4_6":{"data":{},"type":"match_object"},"3_1":{"data":{},"type":"invisible_brick"},"6_5":{"data":{},"type":"match_object"},"2_6":{"data":{},"type":"match_object"},"0_0":{"data":{},"type":"match_object"},"1_4":{"data":{},"type":"match_object"},"0_7":{"data":{},"type":"match_object"},"3_7":{"data":{},"type":"empty"},"4_3":{"data":"6","type":"sugar"},"3_3":{"data":"10000","type":"cow"},"5_2":{"data":{},"type":"match_object"},"5_6":{"data":{},"type":"match_object"},"4_2":{"type":"match_object","data":{},"color":"green"},"6_0":{"data":{},"type":"match_object"},"1_0":{"data":{},"type":"match_object"},"0_2":{"data":{},"type":"match_object"},"5_7":{"data":{},"type":"match_object"},"4_1":{"data":{},"type":"match_object"},"2_2":{"data":{},"type":"match_object"},"1_1":{"data":{},"type":"match_object"},"3_0":{"data":{},"type":"invisible_brick"},"0_1":{"type":"match_object","data":{},"color":"red"},"6_1":{"data":{},"type":"match_object"},"4_5":{"data":{},"type":"match_object"},"1_7":{"data":{},"type":"match_object"},"0_3":{"data":{},"type":"invisible_brick"},"5_1":{"type":"match_object","data":{},"color":"red"},"2_0":{"type":"match_object","data":{},"color":"red"},"6_3":{"data":{},"type":"invisible_brick"},"1_5":{"data":{},"type":"match_object"},"2_5":{"data":{},"type":"match_object"},"0_4":{"data":{},"type":"invisible_brick"},"0_5":{"data":{},"type":"match_object"},"3_2":{"type":"match_object","data":{},"color":"random2"},"3_6":{"data":{},"type":"invisible_brick"},"3_4":{"data":"10000","type":"cow"},"4_0":{"type":"match_object","data":{},"color":"red"},"5_5":{"data":{},"type":"match_object"},"6_2":{"data":{},"type":"match_object"},"0_6":{"data":{},"type":"match_object"},"2_3":{"type":"match_object","data":{},"color":"random2"},"1_6":{"data":{},"type":"match_object"},"1_3":{"data":{},"type":"match_object"},"4_7":{"data":{},"type":"invisible_brick"},"3_5":{"type":"match_object","data":{},"color":"random"},"6_4":{"data":{},"type":"invisible_brick"},"6_7":{"data":{},"type":"match_object"},"5_3":{"data":{},"type":"match_object"},"2_4":{"data":"6","type":"sugar"},"5_4":{"data":{},"type":"match_object"},"1_2":{"data":{},"type":"match_object"}},"scores":[1200,5600,9900],
"title":"Level 75","height":8,"background":"","colors":{"orange":1.3,"blue":1.2,"red":0.9,"green":1.4,"yellow":0.7},"layers":{"0":{},"1":{},"2":{"3_2":{"data":"right","type":"conveyor_belt"},"3_5":{"data":"left","type":"conveyor_belt"},"5_5":{"data":"left","type":"conveyor_belt"},"2_2":{"data":"right","type":"conveyor_belt"},"5_2":{"data":"up","type":"conveyor_belt"},"4_5":{"data":"left","type":"conveyor_belt"},"4_2":{"data":"right","type":"conveyor_belt"},"1_4":{"data":"down","type":"conveyor_belt"},"1_3":{"data":"down","type":"conveyor_belt"},"5_3":{"data":"up","type":"conveyor_belt"},"1_5":{"data":"down","type":"conveyor_belt"},"2_5":{"data":"left","type":"conveyor_belt"},"5_4":{"data":"up","type":"conveyor_belt"},"1_2":{"data":"right","type":"conveyor_belt"}},"3":{},"4":{},"5":{},"6":{},"7":{},"8":{},"9":{},"10":{},"11":{},"12":{},"13":{},"15":{},"16":{"4_4":{"data":{},"type":"obstacle_blocker"},"0_2":{"data":{},"type":"obstacle_blocker"},"5_0":{"data":{},"type":"obstacle_blocker"},"6_6":{"data":{},"type":"obstacle_blocker"},"1_7":{"data":{},"type":"obstacle_blocker"},"4_1":{"data":{},"type":"obstacle_blocker"},"0_0":{"data":{},"type":"obstacle_blocker"},"4_6":{"data":{},"type":"obstacle_blocker"},"2_6":{"data":{},"type":"obstacle_blocker"},"2_1":{"data":{},"type":"obstacle_blocker"},"5_1":{"data":{},"type":"obstacle_blocker"},"2_0":{"data":{},"type":"obstacle_blocker"},"6_2":{"data":{},"type":"obstacle_blocker"},"0_6":{"data":{},"type":"obstacle_blocker"},"2_5":{"data":{},"type":"obstacle_blocker"},"0_7":{"data":{},"type":"obstacle_blocker"},"5_5":{"data":{},"type":"obstacle_blocker"},"1_4":{"data":{},"type":"obstacle_blocker"},"3_2":{"data":{},"type":"obstacle_blocker"},"1_5":{"data":{},"type":"obstacle_blocker"},"3_4":{"data":{},"type":"obstacle_blocker"},"5_3":{"data":{},"type":"obstacle_blocker"},"4_0":{"data":{},"type":"obstacle_blocker"},"6_0":{"data":{},"type":"obstacle_blocker"},"0_5":{"data":{},"type":"obstacle_blocker"},"3_3":{"data":{},"type":"obstacle_blocker"},"5_2":{"data":{},"type":"obstacle_blocker"},"2_3":{"data":{},"type":"obstacle_blocker"},"4_5":{"data":{},"type":"obstacle_blocker"},"4_2":{"data":{},"type":"obstacle_blocker"},"1_6":{"data":{},"type":"obstacle_blocker"},"1_0":{"data":{},"type":"obstacle_blocker"},"3_5":{"data":{},"type":"obstacle_blocker"},"5_7":{"data":{},"type":"obstacle_blocker"},"6_1":{"data":{},"type":"obstacle_blocker"},"2_2":{"data":{},"type":"obstacle_blocker"},"1_1":{"data":{},"type":"obstacle_blocker"},"1_3":{"data":{},"type":"obstacle_blocker"},"0_1":{"data":{},"type":"obstacle_blocker"},"6_7":{"data":{},"type":"obstacle_blocker"},"6_5":{"data":{},"type":"obstacle_blocker"},"5_6":{"data":{},"type":"obstacle_blocker"},"5_4":{"data":{},"type":"obstacle_blocker"},"1_2":{"data":{},"type":"obstacle_blocker"}},"17":{},"18":{"5_7":{"data":{"name":"empty","forced_spawn_queue":[],"spawn_table":[],"colors":{}},"type":"spawner"},"6_7":{"data":{"name":"empty","forced_spawn_queue":[],"spawn_table":[],"colors":{}},"type":"spawner"},"0_7":{"data":{"name":"empty","forced_spawn_queue":[],"spawn_table":[],"colors":{}},"type":"spawner"},"1_7":{"data":{"name":"empty","forced_spawn_queue":[],"spawn_table":[],"colors":{}},"type":"spawner"}}},"limit":[{"value":27,"type":"move"}],"spawners":{},"pregame_boosters":[],"goals":[{"value":1,"type":"customer","object_type":"match_object","color":"red"},{"value":2,"type":"customer","object_type":"cow"}],"bossMaxHealth":120,"mode":"boss_battle","episode":5,"boosters":["single_block_breaker","row_breaker","column_breaker"],"game":15,"data":[],"recipe_item":""
}]}}