{"data":{"level":[{"width":9,"spawn_table":[],"forced_spawn_queue":[],"bossScripts":[{"quantity":6,"data":0,"object_type":"ice_cage","delay":3,"type":"recurring_script","spawn_time":4,"color":"any"}],
"numericId":30,"popsiclesToCollect":0,"objects":{"4_4":{"type":"cow","data":"10000"},"3_5":{"type":"invisible_brick","data":{}},"5_0":{"type":"match_object","data":{},"color":"random3"},"6_6":{"type":"match_object","data":{}},"2_1":{"type":"match_object","data":{}},"2_7":{"type":"match_object","data":{}},"4_6":{"type":"match_object","data":{},"color":"purple"},"3_1":{"type":"match_object","data":{}},"6_5":{"type":"invisible_brick","data":{}},"1_4":{"type":"match_object","data":{}},"0_0":{"type":"match_object","data":{},"color":"purple"},"8_5":{"type":"match_object","data":{}},"2_6":{"type":"match_object","data":{}},"8_0":{"type":"match_object","data":{},"color":"purple"},"8_3":{"type":"match_object","data":{}},"0_7":{"type":"match_object","data":{},"color":"purple"},"8_2":{"type":"match_object","data":{}},"3_7":{"type":"match_object","data":{}},"7_0":{"type":"match_object","data":{}},"7_2":{"type":"match_object","data":{}},"4_3":{"type":"cow","data":"10000"},"3_3":{"type":"cow","data":"10000"},"7_1":{"type":"match_object","data":{}},"5_2":{"type":"invisible_brick","data":{}},"5_6":{"type":"match_object","data":{}},"4_2":{"type":"invisible_brick","data":{}},"6_0":{"type":"match_object","data":{},"color":"random3"},"1_0":{"type":"match_object","data":{}},"0_2":{"type":"match_object","data":{}},"5_7":{"type":"match_object","data":{}},"4_5":{"type":"invisible_brick","data":{}},"2_2":{"type":"invisible_brick","data":{}},"8_6":{"type":"match_object","data":{}},"3_0":{"type":"match_object","data":{},"color":"random3"},"0_1":{"type":"match_object","data":{}},"6_1":{"type":"match_object","data":{}},"4_1":{"type":"match_object","data":{},"color":"purple"},"1_7":{"type":"match_object","data":{}},"1_1":{"type":"match_object","data":{}},"8_7":{"type":"match_object","data":{},"color":"purple"},"8_1":{"type":"match_object","data":{}},"7_7":{"type":"match_object","data":{}},"8_4":{"type":"match_object","data":{},"color":"random"},"7_5":{"type":"match_object","data":{},"color":"random"},"0_3":{"type":"match_object","data":{},"color":"random2"},"5_1":{"type":"match_object","data":{}},"0_5":{"type":"match_object","data":{}},"6_3":{"type":"cow","data":"10000"},"1_5":{"type":"match_object","data":{}},"2_5":{"type":"invisible_brick","data":{}},"0_4":{"type":"match_object","data":{},"color":"random2"},"6_2":{"type":"invisible_brick","data":{}},"3_2":{"type":"invisible_brick","data":{}},"3_6":{"type":"match_object","data":{}},"7_3":{"type":"match_object","data":{},"color":"random"},"4_0":{"type":"match_object","data":{}},"5_5":{"type":"invisible_brick","data":{}},"2_0":{"type":"match_object","data":{}},"3_4":{"type":"cow","data":"10000"},"2_3":{"type":"cow","data":"10000"},"1_6":{"type":"match_object","data":{}},"1_3":{"type":"match_object","data":{}},"7_4":{"type":"match_object","data":{}},"4_7":{"type":"match_object","data":{}},"0_6":{"type":"match_object","data":{}},"7_6":{"type":"match_object","data":{},"color":"random"},"6_4":{"type":"cow","data":"10000"},"6_7":{"type":"match_object","data":{}},"5_3":{"type":"cow","data":"10000"},"2_4":{"type":"cow","data":"10000"},"5_4":{"type":"cow","data":"10000"},"1_2":{"type":"match_object","data":{},"color":"random2"}},"scores":[1700,7700,13600],
"title":"Level 30","height":8,"background":"","colors":{"orange":1,"purple":1,"red":1,"yellow":1},"layers":{"0":{},"1":{},"2":{"5_0":{"type":"conveyor_belt","data":"left"},"6_6":{"type":"conveyor_belt","data":"left"},"2_1":{"type":"conveyor_belt","data":"right"},"2_7":{"type":"conveyor_belt","data":"right"},"4_6":{"type":"conveyor_belt","data":"left"},"3_1":{"type":"conveyor_belt","data":"right"},"1_4":{"type":"conveyor_belt","data":"down"},"0_0":{"type":"conveyor_belt","data":"up"},"8_5":{"type":"conveyor_belt","data":"down"},"2_6":{"type":"conveyor_belt","data":"left"},"8_0":{"type":"conveyor_belt","data":"left"},"8_3":{"type":"conveyor_belt","data":"down"},"0_7":{"type":"conveyor_belt","data":"right"},"8_7":{"type":"conveyor_belt","data":"down"},"3_7":{"type":"conveyor_belt","data":"right"},"7_0":{"type":"conveyor_belt","data":"left"},"7_2":{"type":"conveyor_belt","data":"up"},"6_0":{"type":"conveyor_belt","data":"left"},"1_0":{"type":"conveyor_belt","data":"left"},"7_1":{"type":"conveyor_belt","data":"up"},"4_1":{"type":"conveyor_belt","data":"right"},"8_2":{"type":"conveyor_belt","data":"down"},"0_2":{"type":"conveyor_belt","data":"up"},"0_1":{"type":"conveyor_belt","data":"up"},"6_1":{"type":"conveyor_belt","data":"right"},"8_6":{"type":"conveyor_belt","data":"down"},"3_0":{"type":"conveyor_belt","data":"left"},"5_7":{"type":"conveyor_belt","data":"right"},"5_6":{"type":"conveyor_belt","data":"left"},"1_7":{"type":"conveyor_belt","data":"right"},"1_1":{"type":"conveyor_belt","data":"right"},"8_1":{"type":"conveyor_belt","data":"down"},"7_7":{"type":"conveyor_belt","data":"right"},"8_4":{"type":"conveyor_belt","data":"down"},"7_5":{"type":"conveyor_belt","data":"up"},"0_3":{"type":"conveyor_belt","data":"up"},"5_1":{"type":"conveyor_belt","data":"right"},"0_5":{"type":"conveyor_belt","data":"up"},"1_5":{"type":"conveyor_belt","data":"down"},"0_4":{"type":"conveyor_belt","data":"up"},"2_0":{"type":"conveyor_belt","data":"left"},"3_6":{"type":"conveyor_belt","data":"left"},"7_3":{"type":"conveyor_belt","data":"up"},"4_0":{"type":"conveyor_belt","data":"left"},"0_6":{"type":"conveyor_belt","data":"up"},"4_7":{"type":"conveyor_belt","data":"right"},"1_6":{"type":"conveyor_belt","data":"down"},"7_6":{"type":"conveyor_belt","data":"left"},"7_4":{"type":"conveyor_belt","data":"up"},"1_3":{"type":"conveyor_belt","data":"down"},"6_7":{"type":"conveyor_belt","data":"right"},"1_2":{"type":"conveyor_belt","data":"down"}},"3":{},"4":{},"5":{},"6":{},"7":{},"8":{},"9":{},"10":{},"11":{},"12":{},"13":{},"15":{},"16":{"4_4":{"type":"obstacle_blocker","data":{}},"5_0":{"type":"obstacle_blocker","data":{}},"8_1":{"type":"obstacle_blocker","data":{}},"2_1":{"type":"obstacle_blocker","data":{}},"2_7":{"type":"obstacle_blocker","data":{}},"4_6":{"type":"obstacle_blocker","data":{}},"3_1":{"type":"obstacle_blocker","data":{}},"2_6":{"type":"obstacle_blocker","data":{}},"7_5":{"type":"obstacle_blocker","data":{}},"0_3":{"type":"obstacle_blocker","data":{}},"8_5":{"type":"obstacle_blocker","data":{}},"5_1":{"type":"obstacle_blocker","data":{}},"6_6":{"type":"obstacle_blocker","data":{}},"5_3":{"type":"obstacle_blocker","data":{}},"3_6":{"type":"obstacle_blocker","data":{}},"8_3":{"type":"obstacle_blocker","data":{}},"0_7":{"type":"obstacle_blocker","data":{}},"8_7":{"type":"obstacle_blocker","data":{}},"0_5":{"type":"obstacle_blocker","data":{}},"1_4":{"type":"obstacle_blocker","data":{}},"1_5":{"type":"obstacle_blocker","data":{}},"7_3":{"type":"obstacle_blocker","data":{}},"7_0":{"type":"obstacle_blocker","data":{}},"7_2":{"type":"obstacle_blocker","data":{}},"4_3":{"type":"obstacle_blocker","data":{}},"3_3":{"type":"obstacle_blocker","data":{}},"7_1":{"type":"obstacle_blocker","data":{}},"3_4":{"type":"obstacle_blocker","data":{}},"4_7":{"type":"obstacle_blocker","data":{}},"4_1":{"type":"obstacle_blocker","data":{}},"1_6":{"type":"obstacle_blocker","data":{}},"1_0":{"type":"obstacle_blocker","data":{}},"1_3":{"type":"obstacle_blocker","data":{}},"0_1":{"type":"obstacle_blocker","data":{}},"6_1":{"type":"obstacle_blocker","data":{}},"1_1":{"type":"obstacle_blocker","data":{}},"3_0":{"type":"obstacle_blocker","data":{}},"7_6":{"type":"obstacle_blocker","data":{}},"7_4":{"type":"obstacle_blocker","data":{}},"6_7":{"type":"obstacle_blocker","data":{}},"5_6":{"type":"obstacle_blocker","data":{}},"5_4":{"type":"obstacle_blocker","data":{}},"1_2":{"type":"obstacle_blocker","data":{}}},"17":{},"18":{"3_7":{"type":"spawner","data":{"name":"empty","forced_spawn_queue":[],"spawn_table":[],"colors":{}}},"8_7":{"type":"spawner","data":{"name":"empty","forced_spawn_queue":[],"spawn_table":[],"colors":{}}},"1_7":{"type":"spawner","data":{"name":"empty","forced_spawn_queue":[],"spawn_table":[],"colors":{}}},"7_7":{"type":"spawner","data":{"name":"empty","forced_spawn_queue":[],"spawn_table":[],"colors":{}}},"2_1":{"type":"spawner","data":{"name":"empty","forced_spawn_queue":[],"spawn_table":[],"colors":{}}},"2_7":{"type":"spawner","data":{"name":"empty","forced_spawn_queue":[],"spawn_table":[],"colors":{}}},"4_7":{"type":"spawner","data":{"name":"empty","forced_spawn_queue":[],"spawn_table":[],"colors":{}}},"6_7":{"type":"spawner","data":{"name":"empty","forced_spawn_queue":[],"spawn_table":[],"colors":{}}},"5_7":{"type":"spawner","data":{"name":"empty","forced_spawn_queue":[],"spawn_table":[],"colors":{}}},"5_1":{"type":"spawner","data":{"name":"empty","forced_spawn_queue":[],"spawn_table":[],"colors":{}}},"0_7":{"type":"spawner","data":{"name":"empty","forced_spawn_queue":[],"spawn_table":[],"colors":{}}},"6_1":{"type":"spawner","data":{"name":"empty","forced_spawn_queue":[],"spawn_table":[],"colors":{}}},"3_1":{"type":"spawner","data":{"name":"empty","forced_spawn_queue":[],"spawn_table":[],"colors":{}}},"4_1":{"type":"spawner","data":{"name":"empty","forced_spawn_queue":[],"spawn_table":[],"colors":{}}}}},"limit":[{"value":28,"type":"move"}],"spawners":{},"pregame_boosters":[],"goals":[{"value":2,"type":"break","object_type":"cow"},{"value":2,"type":"break","object_type":"match_object","color":"purple"}],"bossMaxHealth":300,"mode":"boss_battle","episode":2,"boosters":["single_block_breaker","row_breaker","column_breaker"],"game":15,"data":[],"recipe_item":""
}]}}