{"data":{"level":[{"width":8,"spawn_table":[],"forced_spawn_queue":[],"bossScripts":[],
"numericId":59,"popsiclesToCollect":0,"objects":{"4_4":{"type":"match_object","data":{}},"1_3":{"type":"sugar","data":"2"},"5_0":{"type":"match_object","data":{}},"6_6":{"type":"sugar","data":"2"},"2_1":{"type":"match_object","data":{}},"2_7":{"type":"match_object","data":{}},"4_6":{"type":"match_object","data":{},"color":"yellow"},"3_1":{"type":"match_object","data":{},"color":"yellow"},"6_5":{"type":"match_object","data":{}},"1_4":{"type":"sugar","data":"2"},"0_0":{"type":"fountain","data":"0","color":"orange"},"2_6":{"type":"match_object","data":{},"color":"random"},"0_7":{"type":"empty","data":{}},"7_2":{"type":"empty","data":{}},"3_7":{"type":"match_object","data":{}},"7_0":{"type":"fountain","data":"0","color":"orange"},"4_3":{"type":"match_object","data":{},"color":"random2"},"3_3":{"type":"match_object","data":{}},"7_1":{"type":"fountain","data":"0","color":"orange"},"5_2":{"type":"match_object","data":{},"color":"random2"},"4_5":{"type":"match_object","data":{}},"4_2":{"type":"match_object","data":{}},"6_0":{"type":"sugar","data":"2"},"1_0":{"type":"sugar","data":"2"},"0_2":{"type":"empty","data":{}},"5_7":{"type":"match_object","data":{},"color":"yellow"},"5_6":{"type":"match_object","data":{}},"2_2":{"type":"match_object","data":{}},"1_1":{"type":"sugar","data":"2"},"3_0":{"type":"match_object","data":{}},"0_1":{"type":"fountain","data":"0","color":"orange"},"6_1":{"type":"sugar","data":"2"},"4_1":{"type":"match_object","data":{},"color":"yellow"},"1_7":{"type":"match_object","data":{}},"7_7":{"type":"empty","data":{}},"7_5":{"type":"empty","data":{}},"0_3":{"type":"fountain","data":"0","color":"orange"},"5_1":{"type":"match_object","data":{}},"0_5":{"type":"empty","data":{}},"6_3":{"type":"sugar","data":"2"},"1_5":{"type":"match_object","data":{}},"2_5":{"type":"match_object","data":{}},"0_4":{"type":"fountain","data":"0","color":"orange"},"6_2":{"type":"match_object","data":{}},"3_2":{"type":"match_object","data":{}},"3_6":{"type":"match_object","data":{}},"7_3":{"type":"fountain","data":"0","color":"orange"},"4_0":{"type":"match_object","data":{}},"5_5":{"type":"match_object","data":{},"color":"yellow"},"2_0":{"type":"match_object","data":{},"color":"yellow"},"3_4":{"type":"match_object","data":{}},"2_3":{"type":"match_object","data":{},"color":"random"},"1_6":{"type":"sugar","data":"2"},"3_5":{"type":"match_object","data":{}},"7_4":{"type":"fountain","data":"0","color":"orange"},"4_7":{"type":"match_object","data":{}},"0_6":{"type":"fountain","data":"0","color":"orange"},"7_6":{"type":"fountain","data":"0","color":"orange"},"6_4":{"type":"sugar","data":"2"},"6_7":{"type":"match_object","data":{}},"5_3":{"type":"match_object","data":{}},"2_4":{"type":"match_object","data":{},"color":"random"},"5_4":{"type":"match_object","data":{},"color":"random2"},"1_2":{"type":"match_object","data":{}}},"scores":[1200,9100,17000],
"title":"Level 59","height":8,"background":"","colors":{"blue":3,"purple":3,"red":4,"yellow":2.2,"green":3},"layers":{"0":{},"1":{},"2":{},"3":{},"4":{},"5":{},"6":{},"7":{},"8":{},"9":{},"10":{},"11":{},"12":{},"13":{},"15":{},"16":{},"17":{},"18":{}},"limit":[{"value":30,"type":"move"}],"spawners":{},"pregame_boosters":[],"goals":[{"value":10,"type":"customer","object_type":"match_object","color":"red"},{"value":10,"type":"customer","object_type":"match_object","color":"yellow"},{"value":9,"type":"customer","object_type":"match_object","color":"orange"},{"value":10,"type":"customer","object_type":"match_object","color":"red"},{"value":10,"type":"customer","object_type":"match_object","color":"yellow"},{"value":9,"type":"customer","object_type":"match_object","color":"orange"},{"value":10,"type":"customer","object_type":"match_object","color":"red"},{"value":10,"type":"customer","object_type":"match_object","color":"yellow"}],"bossMaxHealth":0,"mode":"order_fulfillment","episode":4,"boosters":["single_block_breaker","row_breaker","column_breaker"],"game":14,"data":[],"recipe_item":""
}]}}