{"data":{"level":[{"width":9,"spawn_table":[],"forced_spawn_queue":[],"bossScripts":[],
"numericId":52,"popsiclesToCollect":0,"objects":{"4_4":{"type":"match_object","data":{},"color":"random"},"1_3":{"data":"1","type":"sugar"},"6_6":{"data":{},"type":"match_object"},"2_1":{"data":"5","type":"sugar"},"2_7":{"data":{},"type":"empty"},"4_6":{"data":{},"type":"match_object"},"1_4":{"data":{},"type":"match_object"},"0_0":{"data":{},"type":"empty"},"8_5":{"type":"match_object","data":{},"color":"orange"},"2_6":{"data":{},"type":"match_object"},"8_0":{"data":{},"type":"empty"},"4_1":{"data":"5","type":"sugar"},"8_3":{"data":"3","type":"sugar"},"0_7":{"data":{},"type":"match_object"},"8_7":{"data":{},"type":"match_object"},"3_7":{"data":{},"type":"empty"},"7_0":{"data":{},"type":"invisible_brick"},"4_3":{"data":"3","type":"sugar"},"3_3":{"data":"1","type":"sugar"},"5_6":{"data":{},"type":"match_object"},"1_0":{"data":{},"type":"invisible_brick"},"5_7":{"data":{},"type":"empty"},"6_1":{"data":"5","type":"sugar"},"8_6":{"data":{},"type":"match_object"},"0_1":{"data":{},"type":"invisible_brick"},"4_5":{"type":"match_object","data":{},"color":"random2"},"1_7":{"data":{},"type":"empty"},"8_1":{"data":{},"type":"invisible_brick"},"7_7":{"data":{},"type":"empty"},"8_4":{"type":"match_object","data":{},"color":"random3"},"7_5":{"data":{},"type":"match_object"},"0_3":{"data":"3","type":"sugar"},"0_5":{"data":{},"type":"match_object"},"6_3":{"data":"3","type":"sugar"},"1_5":{"type":"match_object","data":{},"color":"orange"},"2_5":{"data":{},"type":"match_object"},"0_4":{"type":"match_object","data":{},"color":"orange"},"5_5":{"data":{},"type":"match_object"},"3_6":{"data":{},"type":"match_object"},"7_3":{"data":"1","type":"sugar"},"5_3":{"data":"1","type":"sugar"},"3_4":{"type":"match_object","data":{},"color":"random2"},"2_3":{"data":"3","type":"sugar"},"1_6":{"data":{},"type":"match_object"},"3_5":{"type":"match_object","data":{},"color":"random"},"7_4":{"type":"match_object","data":{},"color":"random3"},"4_7":{"type":"match_object","data":{},"color":"orange"},"0_6":{"type":"match_object","data":{},"color":"orange"},"7_6":{"type":"match_object","data":{},"color":"orange"},"6_4":{"data":{},"type":"match_object"},"6_7":{"data":{},"type":"empty"},"6_5":{"type":"match_object","data":{},"color":"random3"},"2_4":{"type":"match_object","data":{},"color":"random"},"5_4":{"type":"match_object","data":{},"color":"random2"}},"scores":[1600,13800,25900],
"title":"Level 52","height":8,"background":"","colors":{"blue":1.5,"purple":1.25,"yellow":1,"orange":1.25,"red":2.5,"green":1.5},"layers":{"0":{},"1":{},"2":{},"3":{},"4":{},"5":{},"6":{},"7":{},"8":{},"9":{},"10":{},"11":{},"12":{},"13":{},"15":{},"16":{},"17":{},"18":{"7_6":{"data":{"name":"empty","forced_spawn_queue":[],"spawn_table":[],"colors":{}},"type":"spawner"},"4_7":{"data":{"name":"empty","forced_spawn_queue":[],"spawn_table":[],"colors":{}},"type":"spawner"},"6_6":{"data":{"name":"empty","forced_spawn_queue":[],"spawn_table":[],"colors":{}},"type":"spawner"},"1_6":{"data":{"name":"empty","forced_spawn_queue":[],"spawn_table":[],"colors":{}},"type":"spawner"},"3_6":{"data":{"name":"empty","forced_spawn_queue":[],"spawn_table":[],"colors":{}},"type":"spawner"},"0_7":{"data":{"name":"empty","forced_spawn_queue":[],"spawn_table":[],"colors":{}},"type":"spawner"},"5_6":{"data":{"name":"empty","forced_spawn_queue":[],"spawn_table":[],"colors":{}},"type":"spawner"},"8_7":{"data":{"name":"empty","forced_spawn_queue":[],"spawn_table":[],"colors":{}},"type":"spawner"},"2_6":{"data":{"name":"empty","forced_spawn_queue":[],"spawn_table":[],"colors":{}},"type":"spawner"}}},"limit":[{"value":24,"type":"move"}],"spawners":{},"pregame_boosters":[],"goals":[{"value":9,"type":"customer","object_type":"match_object","color":"green"},{"value":6,"type":"customer","object_type":"match_object","color":"orange"},{"value":9,"type":"customer","object_type":"match_object","color":"red"},{"value":9,"type":"customer","object_type":"match_object","color":"green"},{"value":6,"type":"customer","object_type":"match_object","color":"orange"},{"value":9,"type":"customer","object_type":"match_object","color":"red"},{"value":9,"type":"customer","object_type":"match_object","color":"green"},{"value":6,"type":"customer","object_type":"match_object","color":"orange"},{"value":9,"type":"customer","object_type":"match_object","color":"red"},{"value":9,"type":"customer","object_type":"match_object","color":"green"},{"value":6,"type":"customer","object_type":"match_object","color":"orange"},{"value":9,"type":"customer","object_type":"match_object","color":"red"}],"bossMaxHealth":0,"mode":"order_fulfillment","episode":4,"boosters":["single_block_breaker","row_breaker","column_breaker"],"game":7,"data":[],"recipe_item":""
}]}}