{"data":{"level":[{"width":9,"spawn_table":[],"forced_spawn_queue":[],"bossScripts":[],
"numericId":63,"popsiclesToCollect":15,"objects":{"4_4":{"data":{},"type":"empty"},"3_5":{"data":{},"type":"match_object"},"5_0":{"data":{},"type":"match_object"},"6_6":{"data":"2","type":"muffin"},"2_1":{"data":"2","type":"muffin"},"2_7":{"data":{},"type":"match_object"},"4_6":{"data":{},"type":"empty"},"3_1":{"data":"2","type":"muffin"},"6_5":{"data":"2","type":"muffin"},"1_4":{"type":"match_object","data":{},"color":"random"},"0_0":{"data":"2","type":"muffin"},"8_5":{"data":"2","type":"muffin"},"2_6":{"data":{},"type":"match_object"},"8_0":{"data":{},"type":"match_object"},"8_3":{"type":"match_object","data":{},"color":"random3"},"0_7":{"data":{},"type":"match_object"},"8_2":{"data":{},"type":"match_object"},"3_7":{"data":{},"type":"match_object"},"7_0":{"data":{},"type":"match_object"},"7_2":{"data":{},"type":"match_object"},"4_3":{"data":{},"type":"empty"},"3_3":{"data":{},"type":"match_object"},"7_1":{"data":{},"type":"match_object"},"5_2":{"data":{},"type":"match_object"},"5_6":{"data":"2","type":"muffin"},"4_2":{"data":{},"type":"empty"},"6_0":{"data":{},"type":"match_object"},"1_0":{"data":"2","type":"muffin"},"0_2":{"data":"2","type":"muffin"},"5_7":{"data":"2","type":"muffin"},"4_5":{"data":{},"type":"empty"},"2_2":{"data":"2","type":"muffin"},"8_6":{"data":"2","type":"muffin"},"3_0":{"data":"2","type":"muffin"},"0_1":{"data":"2","type":"muffin"},"6_1":{"data":{},"type":"match_object"},"4_1":{"data":{},"type":"empty"},"1_7":{"data":{},"type":"match_object"},"1_1":{"data":"2","type":"muffin"},"8_7":{"data":"2","type":"muffin"},"8_1":{"type":"match_object","data":{},"color":"random3"},"7_7":{"data":"2","type":"muffin"},"8_4":{"type":"match_object","data":{},"color":"random3"},"7_5":{"data":"2","type":"muffin"},"0_3":{"type":"match_object","data":{},"color":"random3"},"5_1":{"data":{},"type":"match_object"},"0_5":{"data":{},"type":"match_object"},"6_3":{"data":{},"type":"match_object"},"1_5":{"data":{},"type":"match_object"},"2_5":{"type":"match_object","data":{},"color":"random"},"0_4":{"type":"match_object","data":{},"color":"random3"},"6_2":{"type":"match_object","data":{},"color":"random2"},"3_2":{"data":"2","type":"muffin"},"3_6":{"data":{},"type":"match_object"},"7_3":{"type":"match_object","data":{},"color":"random2"},"4_0":{"data":{},"type":"empty"},"5_5":{"data":"2","type":"muffin"},"2_0":{"data":"2","type":"muffin"},"3_4":{"data":{},"type":"match_object"},"2_3":{"type":"match_object","data":{},"color":"random"},"1_6":{"data":{},"type":"match_object"},"1_3":{"type":"match_object","data":{},"color":"random"},"7_4":{"type":"match_object","data":{},"color":"random2"},"4_7":{"data":{},"type":"empty"},"0_6":{"type":"match_object","data":{},"color":"random3"},"7_6":{"data":"2","type":"muffin"},"6_4":{"type":"match_object","data":{},"color":"random2"},"6_7":{"data":"2","type":"muffin"},"5_3":{"data":{},"type":"match_object"},"2_4":{"data":{},"type":"match_object"},"5_4":{"data":{},"type":"match_object"},"1_2":{"data":"2","type":"muffin"}},"scores":[3000,9900,16700],
"title":"Level 63","height":8,"background":"","colors":{"orange":2,"blue":3,"purple":2,"red":4,"green":3},"layers":{"0":{},"1":{},"2":{"5_0":{"data":"up","type":"conveyor_belt"},"8_1":{"data":"down","type":"conveyor_belt"},"1_7":{"data":"left","type":"conveyor_belt"},"7_7":{"data":"right","type":"conveyor_belt"},"0_0":{"data":"right","type":"conveyor_belt"},"2_7":{"data":"left","type":"conveyor_belt"},"8_4":{"data":"down","type":"conveyor_belt"},"3_1":{"data":"up","type":"conveyor_belt"},"0_3":{"data":"down","type":"conveyor_belt"},"8_5":{"data":"down","type":"conveyor_belt"},"5_1":{"data":"up","type":"conveyor_belt"},"0_5":{"data":"down","type":"conveyor_belt"},"8_0":{"data":"left","type":"conveyor_belt"},"3_6":{"data":"up","type":"conveyor_belt"},"8_3":{"data":"down","type":"conveyor_belt"},"0_7":{"data":"down","type":"conveyor_belt"},"0_4":{"data":"down","type":"conveyor_belt"},"8_7":{"data":"down","type":"conveyor_belt"},"5_5":{"data":"up","type":"conveyor_belt"},"3_2":{"data":"up","type":"conveyor_belt"},"0_6":{"data":"down","type":"conveyor_belt"},"3_4":{"data":"up","type":"conveyor_belt"},"3_7":{"data":"left","type":"conveyor_belt"},"7_0":{"data":"left","type":"conveyor_belt"},"8_2":{"data":"down","type":"conveyor_belt"},"6_0":{"data":"left","type":"conveyor_belt"},"2_0":{"data":"right","type":"conveyor_belt"},"3_3":{"data":"up","type":"conveyor_belt"},"5_2":{"data":"up","type":"conveyor_belt"},"5_6":{"data":"up","type":"conveyor_belt"},"1_0":{"data":"right","type":"conveyor_belt"},"0_2":{"data":"down","type":"conveyor_belt"},"0_1":{"data":"down","type":"conveyor_belt"},"8_6":{"data":"down","type":"conveyor_belt"},"3_0":{"data":"up","type":"conveyor_belt"},"3_5":{"data":"up","type":"conveyor_belt"},"5_7":{"data":"right","type":"conveyor_belt"},"6_7":{"data":"right","type":"conveyor_belt"},"5_3":{"data":"up","type":"conveyor_belt"},"5_4":{"data":"up","type":"conveyor_belt"}},"3":{},"4":{"6_6":{"data":"set_1x2","type":"popsicle"},"7_2":{"data":"set_1x2","type":"popsicle"},"1_2":{"data":"set_1x2","type":"popsicle"},"2_6":{"data":"set_1x2","type":"popsicle"},"1_6":{"data":"set_1x2","type":"popsicle"},"7_6":{"data":"set_1x2","type":"popsicle"},"7_4":{"data":"set_1x2","type":"popsicle"},"2_2":{"data":"set_1x2","type":"popsicle"},"6_4":{"data":"set_1x2","type":"popsicle"},"2_4":{"data":"set_1x2","type":"popsicle"},"6_2":{"data":"set_1x2","type":"popsicle"},"1_4":{"data":"set_1x2","type":"popsicle"}},"5":{},"6":{},"7":{},"8":{"1_4":{"type":"ice","data":"3","color":"white"},"1_5":{"type":"ice","data":"3","color":"white"},"7_3":{"type":"ice","data":"3","color":"white"},"6_6":{"type":"ice","data":"3","color":"white"},"7_2":{"type":"ice","data":"3","color":"white"},"1_1":{"type":"ice","data":"3","color":"white"},"2_1":{"type":"ice","data":"3","color":"white"},"7_1":{"type":"ice","data":"3","color":"white"},"2_3":{"type":"ice","data":"3","color":"white"},"6_4":{"type":"ice","data":"3","color":"white"},"1_6":{"type":"ice","data":"3","color":"white"},"7_5":{"type":"ice","data":"3","color":"white"},"7_6":{"type":"ice","data":"3","color":"white"},"7_4":{"type":"ice","data":"3","color":"white"},"6_1":{"type":"ice","data":"3","color":"white"},"2_6":{"type":"ice","data":"3","color":"white"},"2_2":{"type":"ice","data":"3","color":"white"},"6_3":{"type":"ice","data":"3","color":"white"},"1_3":{"type":"ice","data":"3","color":"white"},"2_5":{"type":"ice","data":"3","color":"white"},"6_5":{"type":"ice","data":"3","color":"white"},"2_4":{"type":"ice","data":"3","color":"white"},"6_2":{"type":"ice","data":"3","color":"white"},"1_2":{"type":"ice","data":"3","color":"white"}},"9":{},"10":{},"11":{},"12":{},"13":{},"15":{},"16":{},"17":{},"18":{"5_7":{"data":{"name":"empty","forced_spawn_queue":[],"spawn_table":[],"colors":{}},"type":"spawner"},"3_7":{"data":{"name":"empty","forced_spawn_queue":[],"spawn_table":[],"colors":{}},"type":"spawner"},"7_7":{"data":{"name":"empty","forced_spawn_queue":[],"spawn_table":[],"colors":{}},"type":"spawner"},"2_7":{"data":{"name":"empty","forced_spawn_queue":[],"spawn_table":[],"colors":{}},"type":"spawner"},"6_7":{"data":{"name":"empty","forced_spawn_queue":[],"spawn_table":[],"colors":{}},"type":"spawner"},"0_7":{"data":{"name":"empty","forced_spawn_queue":[],"spawn_table":[],"colors":{}},"type":"spawner"},"8_7":{"data":{"name":"empty","forced_spawn_queue":[],"spawn_table":[],"colors":{}},"type":"spawner"},"1_7":{"data":{"name":"empty","forced_spawn_queue":[],"spawn_table":[],"colors":{}},"type":"spawner"}}},"limit":[{"value":20,"type":"move"}],"spawners":{},"pregame_boosters":[],"goals":[{"value":1,"type":"popsicle","object_type":"popsicle"}],"bossMaxHealth":0,"mode":"popsicle","episode":5,"boosters":["single_block_breaker","row_breaker","column_breaker"],"game":3,"data":[],"recipe_item":""
}]}}