{"data":{"level":[{"width":9,"spawn_table":[],"forced_spawn_queue":[],"bossScripts":[],
"numericId":69,"popsiclesToCollect":0,"objects":{"4_4":{"data":{},"type":"match_object"},"3_5":{"type":"match_object","data":{},"modifierType":"ice_cage","color":"random2"},"5_0":{"data":{},"type":"empty"},"6_6":{"data":{},"type":"match_object"},"2_1":{"data":{},"type":"match_object"},"2_7":{"data":{},"type":"match_object"},"4_6":{"data":{},"type":"empty"},"3_1":{"data":{},"type":"empty"},"6_5":{"data":{},"type":"match_object"},"1_4":{"data":{},"type":"match_object"},"0_0":{"type":"match_object","data":{},"modifierType":"ice_cage","color":"purple"},"8_5":{"data":{},"type":"match_object"},"2_6":{"data":{},"type":"match_object"},"8_0":{"type":"match_object","data":{},"modifierType":"ice_cage","color":"purple"},"8_3":{"data":{},"type":"empty"},"0_7":{"type":"match_object","data":{},"modifierType":"ice_cage","color":"purple"},"8_2":{"data":{},"type":"match_object"},"3_7":{"data":{},"type":"empty"},"7_0":{"type":"match_object","data":{},"modifierType":"ice_cage","color":"purple"},"7_2":{"data":{},"type":"match_object"},"4_3":{"data":{},"type":"match_object"},"3_3":{"type":"match_object","data":{},"modifierType":"ice_cage"},"7_1":{"data":{},"type":"match_object"},"5_2":{"type":"match_object","data":{},"modifierType":"ice_cage","color":"random2"},"5_6":{"data":{},"type":"empty"},"4_2":{"type":"match_object","data":{},"color":"random2"},"6_0":{"data":{},"type":"match_object"},"1_0":{"type":"match_object","data":{},"modifierType":"ice_cage","color":"purple"},"0_2":{"data":{},"type":"match_object"},"5_7":{"data":{},"type":"empty"},"4_5":{"type":"match_object","data":{},"color":"random2"},"2_2":{"data":{},"type":"match_object"},"8_6":{"type":"match_object","data":{},"modifierType":"ice_cage","color":"purple"},"3_0":{"data":{},"type":"empty"},"0_1":{"type":"match_object","data":{},"modifierType":"ice_cage","color":"purple"},"6_1":{"data":{},"type":"match_object"},"4_1":{"data":{},"type":"empty"},"1_7":{"type":"match_object","data":{},"modifierType":"ice_cage","color":"purple"},"1_1":{"data":{},"type":"match_object"},"8_7":{"type":"match_object","data":{},"modifierType":"ice_cage","color":"purple"},"8_1":{"type":"match_object","data":{},"modifierType":"ice_cage","color":"purple"},"7_7":{"type":"match_object","data":{},"modifierType":"ice_cage","color":"purple"},"8_4":{"data":{},"type":"empty"},"7_5":{"data":{},"type":"match_object"},"0_3":{"data":{},"type":"empty"},"5_1":{"data":{},"type":"empty"},"0_5":{"data":{},"type":"match_object"},"6_3":{"type":"match_object","data":{},"color":"random2"},"1_5":{"data":{},"type":"match_object"},"2_5":{"data":{},"type":"match_object"},"0_4":{"data":{},"type":"empty"},"6_2":{"data":{},"type":"match_object"},"3_2":{"type":"match_object","data":{},"modifierType":"ice_cage"},"3_6":{"data":{},"type":"empty"},"7_3":{"data":{},"type":"match_object"},"4_0":{"data":{},"type":"empty"},"5_5":{"type":"match_object","data":{},"modifierType":"ice_cage"},"2_0":{"data":{},"type":"match_object"},"3_4":{"type":"match_object","data":{},"modifierType":"ice_cage"},"2_3":{"type":"match_object","data":{},"color":"random2"},"1_6":{"data":{},"type":"match_object"},"1_3":{"data":{},"type":"match_object"},"7_4":{"data":{},"type":"match_object"},"4_7":{"data":{},"type":"empty"},"0_6":{"type":"match_object","data":{},"modifierType":"ice_cage","color":"purple"},"7_6":{"data":{},"type":"match_object"},"6_4":{"type":"match_object","data":{},"color":"random2"},"6_7":{"data":{},"type":"match_object"},"5_3":{"type":"match_object","data":{},"modifierType":"ice_cage"},"2_4":{"type":"match_object","data":{},"color":"random2"},"5_4":{"type":"match_object","data":{},"modifierType":"ice_cage"},"1_2":{"data":{},"type":"match_object"}},"scores":[1400,13400,25300],
"title":"Level 69","height":8,"background":"","colors":{"blue":10,"purple":25,"yellow":10,"orange":25,"red":15,"green":15},"layers":{"0":{},"1":{},"2":{},"3":{},"4":{},"5":{},"6":{},"7":{},"8":{},"9":{},"10":{"4_4":{"type":"cracker","data":"2","color":"white"},"1_1":{"type":"cracker","data":"2","color":"white"},"0_2":{"type":"cracker","data":"1","color":"white"},"6_6":{"type":"cracker","data":"2","color":"white"},"2_1":{"type":"cracker","data":"2","color":"white"},"2_7":{"type":"cracker","data":"1","color":"white"},"6_5":{"type":"cracker","data":"2","color":"white"},"1_4":{"type":"cracker","data":"3","color":"white"},"7_5":{"type":"cracker","data":"2","color":"white"},"8_5":{"type":"cracker","data":"1","color":"white"},"2_6":{"type":"cracker","data":"2","color":"white"},"6_3":{"type":"cracker","data":"3","color":"white"},"1_5":{"type":"cracker","data":"2","color":"white"},"2_5":{"type":"cracker","data":"2","color":"white"},"8_2":{"type":"cracker","data":"1","color":"white"},"6_2":{"type":"cracker","data":"2","color":"white"},"7_3":{"type":"cracker","data":"3","color":"white"},"7_2":{"type":"cracker","data":"2","color":"white"},"6_0":{"type":"cracker","data":"1","color":"white"},"0_5":{"type":"cracker","data":"1","color":"white"},"7_1":{"type":"cracker","data":"2","color":"white"},"2_3":{"type":"cracker","data":"3","color":"white"},"4_5":{"type":"cracker","data":"1","color":"white"},"4_2":{"type":"cracker","data":"1","color":"white"},"1_6":{"type":"cracker","data":"2","color":"white"},"7_6":{"type":"cracker","data":"2","color":"white"},"7_4":{"type":"cracker","data":"3","color":"white"},"6_1":{"type":"cracker","data":"2","color":"white"},"2_2":{"type":"cracker","data":"2","color":"white"},"4_3":{"type":"cracker","data":"2","color":"white"},"1_3":{"type":"cracker","data":"3","color":"white"},"6_4":{"type":"cracker","data":"3","color":"white"},"6_7":{"type":"cracker","data":"1","color":"white"},"2_0":{"type":"cracker","data":"1","color":"white"},"2_4":{"type":"cracker","data":"3","color":"white"},"1_2":{"type":"cracker","data":"2","color":"white"}},"11":{},"12":{},"13":{},"15":{},"16":{},"17":{},"18":{}},"limit":[{"value":25,"type":"move"}],"spawners":{},"pregame_boosters":[],"goals":[{"value":1,"type":"break_all","object_type":"cracker"}],"bossMaxHealth":0,"mode":"clear_juice","episode":5,"boosters":["single_block_breaker","row_breaker","column_breaker"],"game":9,"data":[],"recipe_item":""
}]}}