{"data":{"level":[{"width":8,"spawn_table":[{"type":"muffin","data":2,"percent":0.1}],"forced_spawn_queue":[],"bossScripts":[],
"numericId":73,"popsiclesToCollect":0,"objects":{"4_4":{"data":{},"type":"match_object"},"3_5":{"data":{},"type":"match_object"},"5_0":{"data":{},"type":"match_object"},"6_6":{"data":{},"type":"match_object"},"2_1":{"data":{},"type":"match_object"},"2_7":{"data":{},"type":"match_object"},"4_6":{"data":{},"type":"match_object"},"3_1":{"type":"match_object","data":{},"color":"purple"},"6_5":{"data":{},"type":"invisible_brick"},"1_4":{"data":{},"type":"invisible_brick"},"0_0":{"data":"2","type":"muffin"},"2_6":{"type":"match_object","data":{},"color":"red"},"0_7":{"data":{},"type":"match_object"},"3_7":{"data":{},"type":"match_object"},"7_0":{"data":{},"type":"match_object"},"7_2":{"data":{},"type":"match_object"},"4_3":{"type":"match_object","data":{},"color":"orange"},"3_3":{"type":"match_object","data":{},"color":"purple"},"7_1":{"type":"match_object","data":{},"color":"yellow"},"5_2":{"data":{},"type":"match_object"},"5_6":{"type":"match_object","data":{},"color":"green"},"4_2":{"data":{},"type":"match_object"},"6_0":{"data":"2","type":"muffin"},"1_0":{"data":{},"type":"match_object"},"0_2":{"data":{},"type":"match_object"},"5_7":{"data":{},"type":"match_object"},"4_5":{"data":{},"type":"match_object"},"2_2":{"data":{},"type":"match_object"},"3_0":{"data":{},"type":"match_object"},"0_1":{"type":"match_object","data":{},"color":"blue"},"6_1":{"data":{},"type":"match_object"},"4_1":{"type":"match_object","data":{},"color":"orange"},"1_7":{"type":"match_object","data":{},"color":"red"},"1_1":{"data":{},"type":"match_object"},"7_7":{"data":{},"type":"match_object"},"7_5":{"data":{},"type":"invisible_brick"},"0_3":{"data":{},"type":"invisible_brick"},"5_1":{"data":{},"type":"match_object"},"0_5":{"data":{},"type":"invisible_brick"},"6_3":{"data":{},"type":"match_object"},"1_5":{"data":{},"type":"invisible_brick"},"2_5":{"data":{},"type":"invisible_brick"},"0_4":{"data":{},"type":"invisible_brick"},"6_2":{"type":"match_object","data":{},"color":"yellow"},"3_2":{"data":{},"type":"match_object"},"3_6":{"data":{},"type":"match_object"},"7_3":{"data":{},"type":"invisible_brick"},"4_0":{"data":"2","type":"muffin"},"5_5":{"data":{},"type":"invisible_brick"},"2_0":{"data":"2","type":"muffin"},"3_4":{"data":{},"type":"match_object"},"2_3":{"data":{},"type":"match_object"},"1_6":{"data":{},"type":"match_object"},"1_3":{"data":{},"type":"match_object"},"7_4":{"data":{},"type":"invisible_brick"},"4_7":{"data":{},"type":"match_object"},"0_6":{"type":"match_object","data":{},"color":"red"},"7_6":{"type":"match_object","data":{},"color":"green"},"6_4":{"data":{},"type":"invisible_brick"},"6_7":{"type":"match_object","data":{},"color":"green"},"5_3":{"data":{},"type":"match_object"},"2_4":{"data":{},"type":"match_object"},"5_4":{"data":{},"type":"match_object"},"1_2":{"type":"match_object","data":{},"color":"blue"}},"scores":[1400,7200,11900],
"title":"Level 73","height":8,"background":"","colors":{"blue":3.1,"purple":1.5,"yellow":1,"orange":2,"red":1.5,"green":1.2},"layers":{"0":{},"1":{},"2":{},"3":{},"4":{},"5":{},"6":{},"7":{},"8":{},"9":{},"10":{},"11":{},"12":{},"13":{},"15":{},"16":{},"17":{},"18":{"0_6":{"data":"0","type":"portal_inlet"},"7_6":{"data":"5","type":"portal_inlet"},"0_7":{"data":{"name":"empty","forced_spawn_queue":[],"spawn_table":[],"colors":{}},"type":"spawner"},"6_6":{"data":"4","type":"portal_inlet"},"7_2":{"data":"0","type":"portal_outlet"},"5_4":{"data":"2","type":"portal_outlet"},"7_7":{"data":{"name":"empty","forced_spawn_queue":[],"spawn_table":[],"colors":{}},"type":"spawner"},"2_7":{"data":{"name":"empty","forced_spawn_queue":[],"spawn_table":[],"colors":{}},"type":"spawner"},"4_7":{"data":{"name":"empty","forced_spawn_queue":[],"spawn_table":[],"colors":{}},"type":"spawner"},"5_6":{"data":"3","type":"portal_inlet"},"1_6":{"data":"1","type":"portal_inlet"},"0_2":{"data":"5","type":"portal_outlet"},"5_7":{"data":{"name":"empty","forced_spawn_queue":[],"spawn_table":[],"colors":{}},"type":"spawner"},"3_7":{"data":{"name":"empty","forced_spawn_queue":[],"spawn_table":[],"colors":{}},"type":"spawner"},"2_6":{"data":"2","type":"portal_inlet"},"6_3":{"data":"1","type":"portal_outlet"},"1_3":{"data":"4","type":"portal_outlet"},"6_7":{"data":{"name":"empty","forced_spawn_queue":[],"spawn_table":[],"colors":{}},"type":"spawner"},"2_4":{"data":"3","type":"portal_outlet"},"1_7":{"data":{"name":"empty","forced_spawn_queue":[],"spawn_table":[],"colors":{}},"type":"spawner"}}},"limit":[{"value":29,"type":"move"}],"spawners":{},"pregame_boosters":[],"goals":[{"value":9,"type":"customer","object_type":"match_object","color":"red"},{"value":6,"type":"customer","object_type":"match_object","color":"green"},{"value":3,"type":"customer","object_type":"muffin"},{"value":9,"type":"customer","object_type":"match_object","color":"red"},{"value":6,"type":"customer","object_type":"match_object","color":"green"},{"value":3,"type":"customer","object_type":"muffin"},{"value":9,"type":"customer","object_type":"match_object","color":"red"},{"value":6,"type":"customer","object_type":"match_object","color":"green"},{"value":3,"type":"customer","object_type":"muffin"}],"bossMaxHealth":100,"mode":"order_fulfillment","episode":5,"boosters":["single_block_breaker","row_breaker","column_breaker"],"game":13,"data":[],"recipe_item":""
}]}}